{
  "users": [
    {
      "id": "nnoitora",
      "username": "Nnoitora",
      "password": "disturbed",
      "speed": 500
    },
    {
      "id": "ulquirra",
      "username": "Ulquirra",
      "password": "rammstein",
      "speed": 400
    },
    {
      "id": "yammi",
      "username": "Yammi",
      "password": "soad",
      "speed": 300
    },
    {
      "id": "starkk",
      "username": "Starkk",
      "password": "slipknot",
      "speed": 200
    }
  ],
  "stories": [
    {
      "id": 1,
      "title": "Novi svetski trendovi",
      "text": "Berzanski analitičari, poput jastreba, motre na deset osoba iz silikonske doline. Kada postoji i najmanji nagoveštaj da bi jedan od njih mogao preći iz preduzeća A u preduzeće B, dolazi do promena na svetskom tržištu akcija. Engleska komisija za ljudske sposobnosti nedavno je objavila rezultate ankete u kojoj je primećeno da, od 10% vrhunskih britanskih kompanija, 80% njih investira značajne sume novca i vremena u obrazovanje zaposlenih; kod 10% najneuspešnijih kompanija u obrazovanje zaposlenih ne ulaže se ni vreme ni novac. U Minesoti je sproveden \"Platonov kompjuterski projekat obrazovanja \" i već je uspeo da podigne akademski nivo razmišljanja i rezultate kod 200.000 učenika. U vojnim redovima sve većeg broja država, mentalne \"borilačke veštine\" postaju jednako važne kao i fizičke. Nacionalni olimpijski komiteti posvećuju i do 40% vremena predviđenog za treninge na razvijanje pozitivnog mentalnog stava, mentalne snage i vizuelizacije. U udruženju Fortune 500 (čiji su članovi 500 američkih kompanija sa najvećim profitima), samo prvih pet kompjuterskih kompanija potrošilo je preko milijardu dolara na obrazovanje zaposlenih, a razvoj intelektualnog kapitala postao je osnovni prioritet, uključujući i razvoj svetski najmoćnije valute - valute inteligencije. U Karakasu, dr Luis Alberto Mačado postao je prva osoba koju je neka vlada naimenovala ministrom za inteligenciju i dala mu politički mandat da uveća mentalnu snagu nacije. Svedoci smo kvantnog skoka u ljudskoj evoluciji - svesti inteligencije o sebi, i saznanja da se ta inteligencija može odgajiti do zapanjujućeg nivoa. Ove ohrabrujuće vesti moraju se sagledati u kontekstu najznačajnijih problema definisanih u poslovnoj sferi. Tokom poslednjih 20 godina, anketirano je preko 100.000 ljudi sa svih pet kontinenata. Oni su, kao 20 područja u kojima je neophodan napredak, najčešće navodili sledeće: 1. brzina čitanja 2. razumevanje pročitanog 3. opšte veštine učenja 4. savladavanje eksplozije informacija 5. pamćenje 6. koncentracija 7. verbalne veštine komunikacije 8. pisane veštine komunikacije 9. kreativno razmišljanje 10. planiranje 11. vođenje beležaka 12. analiza problema 13. rešavanje problema 14. motivacija 15. analitičko razmišljanje 16. tehnike polaganja ispita 17. određivanje prioriteta 18. organizacija vremena 19. prihvatanje informacija 20. pristupanje poslu (odlaganje) 21. postepeno slabljenje mentalnih sposobnosti sa godinama. Uz pomoć modernih istraživanja o funkcionisanju mozga, svaki od ovih problema može se relativno lako resiti. Ovo istraživanje pokriva sledeće oblasti: 1. funkcionisanje leve i desne moždane hemisfere 2. pravljenje mapa uma 3. timovi intelektualnih \"komandosa\" koji veoma brzo i opsežno čitaju 4. mnemoničke tehnike 5. zaboravljanje naučenog 6. moždane ćelije 7. mentalne sposobnosti i starenje  -Funkcionisanje leve i desne moždane hemisfere- Sada je već opšte poznato da se leva i desna moždana hemisfera bave različitim intelektualnim funkcijama. Leva moždana hemisfera primarno se bavi logikom, recima, brojevima, nizovima, analizom, linearnošću i listama, a desna moždana hemisfera ritmom, bojama, imaginacijom, sanjarenjem, prostornošću i trodimenzionalnošću. Nedavno je zaključeno da leva moždana hemisfera nije sasvim \"akademska\", niti je desna sasvim \"kreativna, intuitivna, emotivna\" hemisfera. Na osnovu brojnih i opširnih istraživanja danas znamo daje potrebno koristiti obe hemisfere zajedno ukoliko se želi postići i akademski i kreativni uspeh. Ajnštajni, Njutni, Sezani i Mocarti ovog sveta, poput velikih poslovnih genija, kombinovali su svoje lingvističke, numeričke i analitičke veštine sa imaginacijom i vizuelizacijom kako bi stvorili svoja kreativna remek-dela. -Pravljenje mapa uma- Koristeći osnovno znanje o mentalnom funkcionisanju, moguće je obučiti ljude da rese bilo koji od gore navedenih problema; poboljšanja često dostižu i 500%! Jedan od modernih metoda postizanja takvih poboljšanja je i pravljenje mapa uma. Kod tradicionalnog pravljenja beležaka, bez obzira da li se one prave u svrhu pamćenja informacija, pripreme pisane ili verbalne komunikacije, organizacije misli, analize problema, planiranja ili kreativnog razmišljanja, standardni način prezentacije je linearan: u formi rečenica, kratkih lista fraza ili numerički ili alfabetski izvedenih spiskova. Ovi metodi, usled nedostatka boja, vizuelnog ritma, slika i prostornosti, sputavaju razmišljanje i bukvalno ometaju sve gore navedene mentalne procese. Nasuprot tome, pravljenje mapa uma podrazumeva korišćenje svih moždanih sposobnosti, tako što se na sredini stranice na kojoj se vode beleške stavlja slika kako bi se olakšalo pamćenje i kreativno dobijanje ideja, a od tog centra crtaju se grane koje se šire u mrežu asocijacija koje spolja odslikavaju unutrašnju strukturu mozga. Koristeći ovaj pristup, možete spremiti govor za samo nekoliko minuta, umesto da na to potrošite dane; problemi se mogu rešavati sa više razumevanja i brže; pamćenje se može poboljšati do savršenstva; a ljudi koji se bave kreativnim razmišljanjem mogu doći do neograničenog broja ideja. Timovi intelektualnih \"komandosa\" koji veoma brzo i opsežno čitaju Kombinujući mape uma sa novim tehnikama super brzog i opširnog čitanja (koje omogućavaju brzine od preko 1000 reci u minutu uz odlično razumevanje, i eventualne brzine čitanja i oko 10.000 reci u minutu), moguće je stvoriti timove intelektualnih \"komandosa\". Čitajući ovim velikim brzinama, praveći detaljne mape uma o knjizi i njenim poglavljima, razmenjujući sakupljene informacije uz pomoć naprednih tehnika pravljenja mapa uma i prezentacije, moguće je da četiri ili više osoba za samo jedan dan steknu, integrišu, zapamte i počnu da primenjuju u svom profesionalnom životu informacije koje su sadržane u četiri cele knjige. Ove tehnike su nedavno primenjene u multinacionalnim organizacijama \"Nabisco\" i \"Digital computers\". Tom prilikom 40, odnosno 120 izvršnih direktora podeljeno je u četiri grupe. Svaka osoba u svakoj od četiri grupe provela je dva sata u primeni tehnika brzog i opširnog čitanja jedne od četiri odabrane knjige. Nakon isteka ta dva sata, članovi svake grupe međusobno su diskutovali o knjizi, načinu na koji su je protumačili i sopstvenoj reakciji na nju. Svaka grupa je potom odabrala jednog predstavnika koji je održao jasno predavanje svim članovima preostale tri grupe. Ovaj proces ponavljanje četiri puta, i na kraju svakog dana 40, odnosno 120 izvršnih direktora ove dve kompanije napuštalo je salu u kojoj se održavao seminar sa informacijama iz sve četiri knjige koje su sada ne samo imali u glavi, već su ih i integrisali, analizirali i upamtili. Ovaj pristup se na sličan način može primeniti i u okviru porodice, i već gaje mnogo porodica širom sveta koristilo. Nedavno je jedna porodica iz Meksika na seminar poslala svoje troje dece, starosti od šest do petnaest godina. Za dva meseca, oni su postali najbolji učenici svoje generacije i bili su sposobni da za dva dana, uz pomoć drugih članova porodice, nauče ono za šta je prosečnom detetu/učeniku potrebno godinu dana. -Mnemoničke tehnike- Mnemoničke tehnike su prvi koristili Grci i smatrali su ih \"trikovima\". Sada znamo da su te tehnike čvrsto zasnovane na moždanom fiinkcionisanju i da mogu, ako se pravilno primene, drastično da poboljšaju pamćenje. Mnemoničke tehnike zahtevaju korišćenje principa asocijacije i imaginacije, stvaranje snažnih, upečatljivih, čulnih i samim tim nezaboravnih prizora u svesti. Mapa uma je, u suštini, multidimenzionalno mnemoničko sredstvo, jer koristi urođene moždane funkcije za efikasnije utiskivanje informacija. Koristeći mnemonička sredstva, poslovni čovek je naučio kako da savršeno zapamti 40 nepoznatih ljudi koji su mu predstavljeni, i da, slično tome, zapamti spisak preko 100 proizvoda sa svim relevantnim činjenicama i podacima. Ove tehnike se sada primenjuju u okviru IBM Centra za obuku u Stokholmu i imale su važan uticaj na uspeh uvodnog programa obuke zaposlenih koji traje sedamnaest nedelja. Iste tehnike korišćene su i na svetskim šampionatima pamćenja tokom poslednjih pet godina, a posebno ih je koristio trenutni svetski šampion i nosilac rekorda, Dominik O'Brajan. Sve više raste svest da naučiti kako da se uči pre početka bilo kakve obuke, predstavlja razumnu poslovnu odluku. To je razlog zbog koga brojne progresivne međunarodne organizacije danas mnemoničke tehnike smatraju obaveznim \"uvodom\" svih svojih kurseva obuke. Jednostavna računica ukazuje da, ukoliko se na obuku utroši 1.000.000 funti, a 80% tog treninga se zaboravi za dve nedelje, to znači da se tokom istog perioda gubi i 800.000 funti! -Zaboravljanje naučenog-  Zaboravljanje naučenog ima dramatične razmere. Nakon jednog sata učenja, dolazi do kratkog rasta sposobnosti prisećanja informacija dok mozak integriše nove podatke. Zatim sledi dramatičan pad, jer se nakon 24 sata, iz pamćenja gubi 80% detalja. Ova skala je približno ista bez obzira na vreme posvećeno učenju. To znači da se trodnevni kurs manje-više zaboravi nakon nedelju ili dve dana po njegovom završetku. Ovo ima uznemiravajuće posledice; ukoliko multinacionalna firma godišnje troši 50 miliona dolara na obuku zaposlenih, a iza toga ne usledi odgovarajući program obnavljanja naučenog, za samo nekoliko dana po završetku obuke, praktično će biti izgubljeno 40 miliona dolara. Razumevanjem jednostavnih ritmova pamćenja, moguće je ne samo zaustaviti opadanje pamćenja, već ljude naučiti kako da uvećaju količinu naučenog i zapamćenog materijala. -Moždane ćelije- Tokom poslednjih pet godina moždana ćelija našla se u žiži ljudskog traganja za znanjem. Ne samo da svako od nas ima oko 1.000.000.000.000 moždanih ćelija, već se medu njima mogu stvoriti veze koje mogu formirati zapanjujuće veliki broj šema i permutacija. Ovaj broj, koji je izračunao ruski neuro-anatom Pjotr K. Anokin, izražava se jedinicom iza koje sledi milion kilometara nula otkucanih standardnom veličinom! Nama svojstvena sposobnost povezivanja i \"žongliranja\" milijardama bitova, navela je one koji su uključeni u istraživanja mozga da shvate da će adekvatan trening našeg fenomenalnog biokompjutera (koji je sposoban da u jednoj sekundi napravi proračun koji bi Krej kompjuteru, koji obavlja 400 miliona računskih operacija u sekundi, oduzelo 100 godina) u ogromnoj meri ubrzati i uvećati našu sposobnost da rešavamo probleme, analiziramo, određujemo prioritete, da stvaramo i komuniciramo. -Mentalne sposobnosti i starenje- \"One umiru!\" predstavlja uobičajen odgovor koje ljudi daju na pitanje: \"Sta se dešava sa vašim moždanim ćelijama dok starite?\" Ovo se često izgovara sa neobičnim i iznenađujuće velikim entuzijazmom. Međutim, jedna od najlepših vesti iz modernih istraživanja mozga dolazi od dr Marion Dajmond sa Kalifornijskog univerziteta. Ona je nedavno potvrdila da ne postoje dokazi da, kod normalnog, aktivnog i zdravog mozga, dolazi do gubitka moždanih ćelija. Nasuprot tome, istraživanja danas ukazuju da, ukoliko se mozak koristi i obučava, dolazi do uvećanja njegove kompleksnosti, tj. da vremenom inteligencija raste. Obučavanje šezdesetogodišnjaka, sedamdesetogodišnjaka, osamdesetogodišnjaka i devedesetogodišnjaka pokazalo je da se svaki oblik mentalne aktivnosti može statistički značajno i trajno poboljšati. Na početku smo revolucije kakvu svet nikada ranije nije video: kvantnog skoka u razvoju ljudske inteligencije. Na ličnom planu, u obrazovanju i poslu, informacije koje dolaze iz psiholoških, neurofizioloških i obrazovnih laboratorija koriste se kako bi se rešili problemi za koje se do sada smatralo da su neizbežan deo procesa starenja. Primenjujući znanje o odvojenim funkcijama mozga, reflektujući na spoljašnjem nivou naše unutrašnje procese u formi mapa uma, koristeći unutrašnje elemente i ritmove pamćenja i primenjujući znanje o moždanim ćelijama i mogućnostima neprestanog mentalnog poboljšanja tokom života, shvatamo da se \"inteligencijski rat\" može dobiti. ",
      "words": 1770
    },
    {
      "id": 2,
      "title": "Umetnost - od primitivne do hrišćanske",
      "text": "Umetnost je jedan od najdubljih izraza ljudskog mozga. Od početka istorije, um koji vodi ruku i četkicu, bio je uposlen u jednoj od najsuptilnijih i najkomplikovanijih formi analize i izražavanja koji se mogu zamisliti. Sledeći segmenti govore o onome što smatram jednim od najuzbudljivijih perioda istorije umetnosti. -Primitivna umetnost- Sva umetnost vodi poreklo iz praistorijskog vremena, ali predstave životinja usečene na slonovači i kostima, ili nacrtane i naslikane na zidovima i svodovima pećina u severnoj Spaniji i južnoj Francuskoj, još uvek izazivaju čuđenje zbog svoje izuzetne moći i utiska \"modernosti\". Mnoga remek-dela proizvedena su između petog i prvog milenijuma pre nove ere. Ono što primećujemo na njihovim fotografijama ili kopijama je: način na koji su umetnici odabirali i naglašavali osnovne karakteristike životinja-mamuta i bizona, jelena, divljih svinja i divljih konja; primetno poznavanje anatomije; i veštinu kojom su preneli telesne proporcije i snažne pokrete životinja koristeći tek malo crne i crvene ilovače.Postoje slike i crteži ljudi koji su mnogo kasnije živeli sličnim životom, a koji se mogu uporediti sa ovima. Tako su afrički Bušmani u stenovitim skrovištima ostavili crteže životinja koji su jednako lepi kao i crteži prvih evropskih umetnika, a slični su im i po stilu, iako su neki od njih rađeni tek u devetnaestom veku. U novoj fazi civilizacije, lov je postao manje važan, a društveni život poprima određeniju formu. Dolazi do usavršavanja alata od kamena i bronze, razvija se grnčarstvo i tkanje i, uz razvoj poljoprivrede, pojavljuju se različiti rituali i ceremonije koji sadrže te elemente. Tipično primitivno društvo, kakvo još ponegde postoji (npr. u Polineziji), u najvećoj meri se bave umetnošću u vezi sa osnovnom religijom. Rezbarija i skulptura po važnosti prevazilaze slikanje: smatra se da trodimenzionalni idol mnogo impresivnije predstavlja sile za koje se smatra da utiču na primitivni život. Slikanje i crtanje postaju nizovi znakova i simbola. -Drevni mediteranski svet- Slikanje i crtanje u drevnom mediteranskom svetu ima tri aspekta. Postoji slikanje na zidu sa jasnim konturama i ujednačenim bojama, što predstavlja tehniku nalik na tehniku nekih modernih postera. Drevni Egipćani koristili su je u eksterijerima svojih hramova: oštro definisani reljefi sa jakim konturama i svetlim bojama. Većina sačuvanih egipatskih slika pronađena je na zidovima grobnica, uključujući scene iz života preminulih. Određena umetnička pravila se redovno koriste. Na primer, muške figure obojene su crvenom ilovačom, a ženske žutom; glava i noge su uvek u profilu, bez obzira na koju stranu je okrenuto telo. Veliki kvalitet predstavlja živopisna opservacija umetnika prilikom slikanja scena banketa i plesa ili pecanja i plovidbe Nilom. Slike na zidu Minoja sa Krita otkrivene u palati Knosos, po svojoj jasnoći, ujednačenim bojama i jakim crtama, mogu se povezati sa egipatskim, iako su po karakteru potpuno drugačije. Oslikana grnčarija drevne Grčke pruža, u neku ruku, drugi primer ovih umetničkih tradicija. Muška figura je mračna, a ženska svetla; a crte koje uobličavaju telo su veoma važne. Grčki slikari vaza (koji su često potpisivali svoje šolje i vaze) mogu se proučavati kao briljantni tehnički crtači sa izvrsnim smislom za linije i siluete. U klasičnom periodu, međutim, umetnost slikanja vaza prestala je da zauzima značajno mesto i tu nailazimo na prve tragove slika u modernom smislu reci, iako se naša ideja o njima, nažalost, ne bazira na autentičnim radovima lagendarnih majstora, Zeuksa i Apelesa, već na kopijama grčkih slika otkrivenim u iskopinama rimskih gradova, Pompeji i Herkulanumu. Jasno je, međutim, da su grčki slikari umetnosti davali prostor i karakter o kojima Egipćani i Krićani nisu ni sanjali. Njihov rad više nije bio ujednačen, već je bio različite svetlosti i osenčen. Grci su osmislili dramatične kompozicije; bili su zainteresovani za problem davanja individualnog karaktera i izraza svojim likovima u vidu izraza lica i gestikulacije. Grčko-rimski radovi koji su ukrašavali vile bogatih Rimljana u prvom veku naše ere daju nam primere pejzaža (dotada nepoznatih) i proučavanja mirnog života. To su bili prethodnici kasnijeg razvoja slikarstva u Italiji. \nVizantijska umetnost\n Raspad Rimskog carstva, uspostavljanje novog Rima u bivšem Vizantu (Konstantinopolj) i pojava hrišćanstva kao univerzalne vere Zapada, dali su slikanju novi karakter, duh i cilj. Hrišćanska religija postala je tema umetnika. Sirio se formalni stil, sada poznat kao Vizantijski, koji je služio izražavanju ozbiljnosti i rituala. Konstantinopolj je imao mnogo veza sa Istokom, čiji se uticaji vide u upotrebi obilja boja i geometrijskih šema. Najveći trijumfi vizantijske slikarske umetnosti dostignuti su u mozaicima koji su se koristili kao dekoracija zidova ili unutrašnjih delova kupola vizantijskih crkava. Druge forme bile su, pre svega, ikone, slike Hrista i Bogorodice, predstavljenih zajedno, stoje samo po sebi ukazivalo na nepromenjivu prirodu vere; i, na drugom mestu, iluminacija jevanđelja i liturgija na slikama i zlatnim listićima. Stil je isti kao i kod ikona. Vizantija je ostala nedirnuta, napredna i ista punih 1100 godina nakon svog osnivanja u četvrtom veku naše ere, tako da mnoga dela koja su po mnogo čemu slična, mogu imati veoma različite datume nastanka. Sfera vizantijske umetnosti poklapa se sa sferom uticaja Vizantijskog carstva: istočnih obala mediterana, Grčke i grčkih ostrva. Donekle je prenesena i na zapad, usled putovanja vizantijskih misonara i zanatlija. Stil čuvenog irskog rukopisa iz osmog veka, Knjige Kela ima veze sa rukopisima istočnog Mediterana. Italijanski gradovi Firenca, Sijena i Piza imale su vizantijsku tradiciju, čiji je kraj označen slikama Cimabua u Firenci i Dučija u S'ijen'i u trinaestom veku u istočnoj Evropi, na mestu današnje Hrvatske nalazile su se pielepe vizantijske slike na zidu od dvanaestog do četrnaestog veka. Grčki slikari su uveli ikone u Rusiju i Ruski umetnik Andrej Rubljov (1360-1430) razvio je taj stil do veličanstvenog nivoa. Do šesnaestog veka, Krit je ostao centar i na slikama El Greka (1545-1614) još uvek ima tragova vizantijske tradicije. \nRanohrišćanska umetnost na Zapadu\n I na Istoku i na Zapadu, ranohrišćanska umetnost obično je izbegavala realistične prikaze ljudskih likova koji su bili tema klasične umetnosti. Ta umetnost, ipak, nije bila gruba i nesavršena, već u većoj meri duhovna i apstraktna, u smislu odvojenosti od običnog sveta; i, sa ove tačke gledišta, danas se vrednuje s mnogo više blagonaklonosti nego ranije. Ranohrišćanska umetnost na Zapadu ima kompleksnu istoriju. Nastala je prateći grčko-rimsku tradiciju, kao, na primer, na slikama nađenim u rimskim katakombama. Potom je modifikovana lokalnim karakterom različitih oblasti na kojima se Rimsko carstvo prostiralo. Na nju je uticala religijska i trgovačka povezanost sa Istočnim carstvom. Dugo vremena je monaška umetnost iluminacije rukopisa predstavljala glavni oblik slikarske umetnosti, kako u Keltskoj i Anglosaksonskoj Britaniji tako i u carstvu Karla Velikog. Dve stvari su postepeno postajale jasne: hrišćanstvo je bila jedina ujediniteljska i obrazovna sila Evrope; a slike su predstavljale osnovno sredstvo efikasnog i univerzalnog prenosa poruke ljudima koji su govorili različitim jezicima ili nisu znali da čitaju i pišu. Sa početkom perioda izgradnji crkava, koji je počeo u jedanaestom veku, došlo je do razvoja internacionalnog zapadnjačkog stila poznatog kao romanika. Njegov najveći proizvod bile su slike na zidovima crkava. Radeći na velikim površinama, slikari su razvili grandiozan i jednostavan stil. \nModerna i druga umetnost\n Francuski umetnik Sezan, poznat kao otac moderne umetnosti, odveo je umetnost korak dalje. Njega je primarno interesovalo ne šta vidi, već kako vidi. Stoga je počeo da istražuje način na koji se svetio odbija od predmeta i dolazi do ljudskog oka i mozga. On bi posmatrao predmete i na svojim platnima slikao samo male površine svetla i boje koje je video, postepeno gradeći sliku - umnogome nalik na slagalicu - sve dok se ne bi pojavio pravi prizor. Iz Sezanovih dela razvila se kompletna škola kubizma, u kojoj umetnici nisu slikali samo površine svetla, već i ono čega su se sećali da su videli iz različitih perspektiva. Tako je ljudski lik, u oku umetnika, mogao postati kompozicija viđena iz svih uglova. Na taj način su njihove slike postale \"prizori iz uma\", a ne jednostavni prizori iz stvarnosti. Umetnici poput Vasilija Kandinskog i Lorejn Gil još su dublje istraživali ono što vidimo i način na koji vidimo, ispitujući odnos između boje i boje; linije i linije; i linije i boje. U dvadeset prvom veku verovatno je da ćemo biti svedoci razvoja novih teorija umetnosti koje će je u većoj meri povezati sa matematikom, fizikom i svim drugim naukama. ",
      "words": 1357
    },
    {
      "id": 3,
      "title": "Životinjska inteligencija",
      "text": "-Komunikacija kitova- Jedan kanadski naučnik otkrio je da kitovi ubice govore nekoliko različitih jezika na nekoliko različitih dijalekata. Razlika između dijalekata može biti mala poput regionalnih dijalekata bilo kog nacionalnog jezika, ili velika poput razlike između evropskih i azijskih jezika. -Lingvistički klub super inteligentnih- Ovo otkriće svrstava kitove u lingvistički klub super inteligentnih sisara - klub u koji još spadaju ljudi, primati i foke. (Savremena istraživanja ukazuju da su zvuči koje proizvode drugi sisari genetski određeni, iako postoji sve više istraživanja koja uzimaju u obzir činjenicu daje najveći broj životinja lingvistički mnogo inteligentniji nego što smo mi to do sada smatrali i da su razne vrste individualno kreativne u svojoj komunikaciji.) Džon Ford, upravnik vankuverskog akvarijuma sa morskim sisarima u Britanskoj Kolumbiji, deset godina je proučavao komunikaciju između kitova ubica. On primećuje da su dijalekti kitova ubica sastavljeni od zvižduka i poziva koje životinje koriste kada komuniciraju pod vodom. Ovi pozivi su potpuno različiti od visoko energetskih \"klikova\" nalik na one kod sonara, a koje kitovi emituju kada se orijentišu uz pomoć eho-lokacije. Kitovi ubice su, u stvari, članovi porodice delfina i najveći su u porodici. Njihovo ime je potpuno pogrešno jer ne postoji zapis daje bilo koji kit ubica ikada napao čoveka - baš naprotiv, postoje brojni zapisi slučajeva da su kitovi, poput delfina, često pomagali ljudima. \nKitovi zvižduci\n Možda bi trebalo pokretnuti akciju da se ime kitova ubica promeni - mnogo prigodniji bio bi naziv \"Kit zviždač\" ili \"Zviždeći kit\". Kitovi zviždači mogu se naći u svim glavnim okeanima sveta, od najtoplijih, preko tropskih, do najhladnijih na Arktiku i Antarktiku. Najveća koncentracija kitova otkrivena je na obalama hladnih zemalja, uključujući Island i Kanadu. Populacija koju je Ford proučavao brojala je otprilike 350 kitova koji tokom ćele godine žive u blizini obale Britanske Kolumbije i severnog dela američke države Vašington. Kitovi su formirali dve odvojene zajednice koje tumaraju obližnjim teritorijama. \"Severna zajednica\", koja se sastoji od 16 porodičnih grupacija ili \"jata\", prostire se od sredine ostrva Vankuver do jugoistočnog dela Aljaske. Članovi malobrojnije \"južne zajednice\" dele se u tri porodice i nalaze se između granice severne zajednice, pa sve do Garijeve luke na jugu. Na sreću, najveći broj zvukova koje proizvode kitovi zviždači, nalaze se u opsegu ljudskog sluha. Stoga je Fordovo istraživanje bilo lako sprovesti - on je jednostavno prebacio hidrofon preko broda u vodu i elektronski pojačao zvuke, snimajući ih na traku. Tokom istraživanja Ford je uspeo da identifikuje dijalekat svake porodice. Otkrio je da, u proseku, svaka porodica pravi 12 posebnih poziva. Svaki član porodice je sposoban da proizvede i proizvodi ceo set zvižduka i poziva . Sistem tih zvižduka i poziva je, i po kvantitetu i po kvalitetu, različit od zvižduka i poziva drugih delfina i kitova. Najveći broj poziva koristi se samo unutar porodice, ali ponekad su jedan ili nekoliko njih iz različitih porodica, slični. \nZajednički preci\n Interesantno je da je Ford otkrio da se ovi dijalekti prenose sa generacije na generaciju u okviru svake porodice, što gaje navelo da pretpostavi da sve grupe koje imaju iste pozive verovatno potiču od zajedničkog pretka ili predaka. Sto više poziva je zajedničko između članova neke dve porodice, to su one u bližem rodbinskom odnosu. Filogenetska veza između dijalekta i porodice omogućila je Fordu da proceni koliko je svakom posebnom dijalektu potrebno vremena da se pojavi. \"Brzina promenaje izgleda veoma mala\", kaže on. \"Potrebno je nekoliko vekova da se razvije dijalekat\", što ukazuje na mogućnost da su neki dijalekti stari i nekoliko hiljada godina. Posebna oblast Fordovog istraživanja bila je veza između ponašanja kita zviždača i poziva koje odašilje. Do sada nije pronašao određenu vezu, iako je otkrio da su pozivi brži, višeg tona i češći kada je životinja uzbuđena. Ford trenutno veruje da, uzeti zajedno, pozivi formiraju \"detaljan kod identiteta porodice\" koji kitu zviždaču omogućava da identifikuje članove svoje porodice. Ovo je veoma važno za održanje \"jata\" na okupu kada skupovi porodica, poznati kao \"super jata\", plivaju zajedno. Ford do sada nije uspeo da identifikuje gramatičku strukturu u komunikaciji kitova zviždača. Međutim, impresioniranje njenom akustičnom prefinjenošću: \"Izgleda da oni imaju veoma visoko razvijen, efikasan način komuniciranja koji mi, u ovom trenutku, samo delimično možemo razumeti\", kaže on. \"Smatram da ćemo, u budućnosti, mnogo bolje shvatiti koliko su značajno kitovi adaptirani na svoje jedinstveno okruženje.\" \nŽivotinjska inteligencija — delfini\n U smislu definicije učenja koju je dao Radjard Kipling, a koja glasi \"šta, zašto, kada, gde i ko\", mnogi ljudi smatraju da su delfini i kitovi uskraćeni za tri stvari, jer \"nema dokaza\" da oni mogu da komuniciraju na način - \"kada\", \"kako\" i \"zašto\". Pre nekoliko godina radio sam u Zoološkom vrtu u Vipsnedu kada se odigrala nezakazana predstava delfina. Jedan od tri delfina pliskavice (Tursiops truncatus) delovao je kao bolestan i usledili su pokušaji da se uhvati. Kao reakciju na to, ostala dva delfina su plivala u uskoj formaciji s obe strane ovog delfina, onemogućavajući bacanje mreže. Rešenje je viđeno u njihovom uterivanju u manji bazen i spuštanju podvodne kapije. Delfini su reagovali veoma uznemireno, da bi ta uznemirenost nestala tek pošto su se ponovo poredali u formaciju i zaronili na dno bazena. Zajednički su noseve zavlačili pod podvodnu kapiju, uspeli daje podignu i preplivaju ispod nje u slobodu. To ukazuje da su bili sposobni da izađu na kraj sa \"kako\" i \"kada\", a na početku su svakako znali i \"zašto\". Zbog toga je donekle nerazuman pokušaj upoređivanja moždanih funkcija Homo sapiensa i Tursiops truncatusa bez prethodnog definisanja pravila. Upoređivanje \"funkcija\" bio bi pogodniji pristup od upoređivanja \"inteligencije\". Različite vrste imaju različite vrste problema i stoga postoje različito dizajnirani kompjuteri za njihovo rešavanje. Neki kompjuteri, poput LISP mašine, veoma su pametni ubaratanju idejama, dok su drugi bolji u radu s brojevima. Pokušaj da uporedimo LISP i BASIC programe bio bi prilično bezuspešan. Ovaj visok stepen razvoja malog mozga u delfinskoj porodici verovatno je povezan sa činjenicom da ove životinje funkcionišu na trodimenzionalan način. Poput ptica, oni imaju potrebu za trodimenzionalnom koordinacijom, čemu služi mali mozak. U čuvenom radu Džona Lilija, delfini sa povezanim očima bili su sposobni da koriste svoju funkciju eho-lokacije kako bi na daljinu razlikovali predmete na osnovu njihove gustine. Takvi podaci ukazuju na postojanje sistema tumačenja. Obično se na sistem eho-lokacije gleda jedino kao na način da delfini lociraju hranu. Opseg delfinovih frekvencija koji se koristi za raspoznavanje mora se poklapati sa mrežom neurona sposobnih da protumače odnos signala i buke, baš kao što mi tumačimo ono što vidimo očima. Kratak pogled na mozak bebe delfina sugeriše pre gusto nego retko upakovane neurone, a kako svaki neuron pravi 6000 ili više veza sa ostalim neuronima, verovatnoća da takav mozak radi veoma malo ili ništa sa materijalom dobijenim preko čula, veoma je mala. Moguće je, na primer, da kapacitet mozga delfinu daje potencijal da zapamti audio mape okeanske geografije. I stvarno, kao što to ribari znaju, ribe i lignje se ne mogu naći bilo gde, već samo na mestima na kojima se hrane, a koja su povezana sa geografijom i geologijom okeana, njegovim strujama, stenama i drugim formacijama na kojima raste podmorski život. Delfini bi, čak, mogli \"videti\" zvuke. Neobična je činjenica da neki ljudi koji su neobično nadareni u oblasti memorije, tvrde da mogu da \"čuju\" boje i \"vide\" zvuke. To se može očekivati od neobično velikog broja sinaptičkih veza koje omogućavaju mozgu da upoređuje informacije na višem stepenu. Ako se tako nešto može zamisliti, nije li takođe moguće da je naše mišljenje o njihovoj nesposobnosti komunikacije, koja je bazirana na siromašnoj raznolikosti glasova koje prave, pogrešno? To što mi komuniciramo recima u srednjem opsegu naše audio frekvencije, ne znači da i oni moraju raditi isto. S obzirom da na raspolaganju imaju tako širok opseg frekvencija, mogu da ne rade ništa, ili da rade mnogo, a da to i ne znaju. Kada bi delfin sagledao naše sposobnosti korišćenja zvukova, pretpostavljam da bi ih smatrao prilično primitivnim! Problem leži u tome što mi druge vrste analiziramo sa svoga stanovišta. Ljudi često zaključuju da su psi i druge životinje veoma inteligentne zato što mogu da izvedu jednostavne trikove kojima ih naučimo. Činjenica da Homo sapiens može da uhvati kitove ili delfine, stavi ih u okruženje u kome ne mogu u potpunosti da koriste svoja čula i navodi ih da izigravaju košarkaše kako bi dobili hranu, demonstrira samo moć takvih tehnika. Svođenje ogromne inteligencije ovih veličanstvenih životinja na šou-trikove predstavlja minimalistički, ponižavajući i nezahvalan pristup. Mnogo bismo prikladnije ispoljavali sopstvenu inteligenciju i humanost, kada bismo na širok opseg sposobnosti drugih bića gledali na humaniji i inteligentniji način. ",
      "words": 1433
    },
    {
      "id": 4,
      "title": "Da li smo sami u univerzumu? Inteligencija vanzemaljaca",
      "text": "Od 1960. godine sprovedeno je najmanje 80 istraživačkih projekata potrage za inteligentnim oblicima života u univerzumu. Svi su oni bili tako malog obima da su skoro neizbežno bili osuđeni na propast. Sada je NASA otpočela istraživanje sa novom opremom koja obećava deset miliona puta veću efikasnost od bilo kog ranijeg pokušaja. S obzirom da se potraga ljudske i kompjuterske inteligencije za inteligencijom u svemiru popela na tako visok nivo, brojni naučnici predviđaju da će ona biti otkrivena pre isteka XX veka. Tačno na dan, sat i minut petstogodišnjice Kolumbovog otkrića Amerike, ljudska rasa je otpočela sa do sada najvećim pokušajem da otkrije ne samo nove svetove, već i nove inteligencije u svemiru. Astronomi iz Arekiba u Porto Riku su 12. oktobra 1992. godine, tačno u 3 sata popodne po Atlantskom standardnom vremenu uključili najmoćniji radio-teleskop koji je ikada napravljen. U potpuno istom trenutku, drugi astronomi su uključili drugi teleskop u Goldstoun stanici blizu Barstova u Kalifoniji. Trenutno više od stotinu fizičara, astronoma, kompjuterskih programera i tehničara u napetom iščekivanju marljivo prati kontrolne table dok super-kompjuteri osluškuju na milione radio-kanala u potrazi za bilo kakvim signalom sa oznakom inteligentnog oblika života, koji bi potvrdio ono u šta je većina astronoma godinama ubeđena - da nismo sami u univerzumu.  Projekat vredan sto miliona dolara, pod nazivom SETI, u potpunoj je nadležnosti NASA-e i nastaviće se bar do 2000 godine, u nadi da će uspeti da otkrije radio talase koje su stvorila inteligentna bića: radio talase koji bi mogli ukazati da su krenuli na put ka Zemlji brzinom svetlosti juče ili možda na deset milijardi godina ranije. Naspram ove misije, prethodni najveći pokušaj traganja za inteligencijom u svemiru deluje beznačajan. Inspiraciju za njega dao je astronom Frenk Drejk 1974. godine. Drejk je koristio radio teleskop u Arekibu, koji je tada imao efektivnu moć od 20 biliona vati, da bi poslao kodiranu poruku ka najvećoj skupini zvezda u sazvežđu Herkules, koja je udaljena nekih 24.000 svetlosnih godina. Poruku, koja je predstavljala neku vrstu kosmičkog testa inteligencije, Drejk je prvo pokazao astronomu Karlu Saganu, jednom od finalista takmičenja \"Najbolji mozak 1990-te\" dok su zajedno ručali uKornel klubu. Drejk kaže da je Sagan veoma brzo dešifrovao najveći deo poruke. Sama poruka, od vrha na dole, pokazuje sledeće: 1. Binarni sistem. 2. Molekule neophodne za život na Zemlji. 3. Hemijsku formulu za DNK, naš genetski materijal. 4. Grafički prikaz duple zavojnice molekula DNK koja se završava na glavi ljudske figure. 5. Prikaz našeg Sunca i devet planeta (Zemlja je naglašena, kako bi se istaklo gde mi živimo), i sliku radio-teleskopa koji odašilje poruku. Sadašnja misija je tako velikog obima i tako precizna da će nam omogućiti da za tri dana čujemo više nego što smo čuli za 22 godine od kada je Drejk otpočeo svoje prve eksperimente 1970. godine. U novom pokušaju, najmanje šest radio-teleskopa širom sveta istovremeno je na oprezu; disk u Arekibu - prečnika 300 m - poboljšanje kako bi uvećao svoju senzitivnost za 300 posto, a napravljen je i poseban softver za tumačenje primljenih signala. Drejk, danas star šezdesetdve godine, profesor je na Kalifornijskom astronomskom univerzitetu u Santa Kruzu i takođe je predsednik SETI Instituta u Mauntin Vjuu u Kaliforniji. On kaže: \"Ništa me toliko ne muči koliko pomisao da radio poruke vanzemaljskih civilizacija iz svemira trenutno prolaze kroz naše kancelarije i domove, poput šapata koji ne možemo čuti.\" \nOči\n Najveći svetski radio-teleskop veoma je različit od tradicionalnih optičkih teleskopa koje koriste astronomi amateri, pa čak i od velikih teleskopa u opservatorij ama smeštenim po raznim planinskim vrhovima po svetu, poput Palomara u Kaliforniji ili Mauna Kia na Havajima. Teleskop u Arekibu je oblika činije prečnika 304 metra, napravljene od perforiranog aluminijuma, a smešten je u velikoj rupi u zemlji. Iznad \"činije\", na stotine tona pokretnih antena vise sa kablova povezanih tako da podržavaju tornjeve na okolnim brdima. Po dizajnu sličan satelitskoj TV anteni, radio-teleskop je u mogućnosti da svaki radio talas koji na njega padne usmeri ka centralnoj sabirnoj tački gde ga prima i obrađuje prijemnik.Ove \"oči Zemlje\" su toliko osetljive da je 1987. godine novi super-kompjuter, povezan sa Goldstoun radio-teleskopom u Mohava pustinji, veoma lako detektovao bledi signal od jednog vata koji je dolazio sa Pionira 10 koji je sa Zemlje u svemir lansiran u zimu 1972. godine. U trenutku u kome je detektovan, Pionir je bio na udaljenosti od 64 milijarde kilometara od Zemlje! Radio-teleskopi su od naročite koristi u potrazi za inteligentnim oblicima života van Zemlje, jer su radio-talasi koji dolaze od zvezda neredovni i slučajni, dok su radio talasi koji se koriste za inteligentnu komunikaciju strukturirani tako da se lako detektuju na monitorima poput osciloskopa. Ideja za traganjem za strukturiranim talasima koji bi sugerisali prisustvo inteligencije originalno je potekla od Drejka i fizičara Đuzepe Kokonija i Filipa Morisona sredinom pedesetih godina. Godine 1959, u naučnom časopisu \"Nature\", Kokoni i Morison su napisali: \"... šanse za uspeh je teško proceniti, ali ukoliko nikada ne krenemo u potragu, te su šanse ravne nuli.\"  -Istorijska pogodba- Za one koji se pitaju da lije pokušaj vredan truda i ulaganja, Drejk ističe daje je suma od 135 miliona funti koje su odvojene za SETI manja od jedne desetine procenta godišnjeg budžeta NASA-e koji iznosi 15 milijardi funti. \"Ako uzmete u obzir posledice uspeha\", kaže Drejk, \"ovo bi mogla biti istorijska pogodba.\" Veliki procenat iz budžeta odlazi na novu kompjutersku opremu koja poboljšava kvalitet prijema i pomaže pri tumačenju signala. Ovi veliki elektronski mozgovi će \"primiti\" velike količine kosmičkih radio informacija koje će se raširiti preko milion kablova, pregledaće podatke tragajući za šemama koje bi prepoznali ljudski posmatrači. Mozak koji stoji iza ovih mozgova i sam je veoma neobičan: fizičar Kent Kalers šlep je od rođenja i nikada nije video radio-signal na osciloskopu, a kamoli samu zvezdu. Strast prema univerzumu nasledio je od oca koji mu je, kada je Kalers imao pet godina, čitao odlomke iz Zlatne knjige o astronomiji. \"Ideja da možda postoje drugi svetovi koje treba otkriti, zapalila je moju maštu\", seća se on. A upravo njegova velika mašta pomaže da Zemlja dobije vid: on je uspeo da svom programu automatske obrade signala podari ono stoje časopis \"Life\" opisao kao \"drugi vid\" - sistem koji je u stanju da identifikuje signale za koje postoji sumnja da su inteligentni, među nečim što bi, inače, delovalo kao kotao piskavih zvukova. Glava NASA projekta, profesorka Džil Tarter, poput svojih kolega, veruje da postoje drugi oblici inteligencije. Ona i njene kolege imaju viziju o galaktičkoj zajednici inteligentnih civilizacija koje su isuviše udaljene jedna od druge da bi se družile, kolonizovale ili kanibal izovale jedna drugu. Poruka jedne od njih, poslata na Zemlju možda pre mnogo miliona godina kada naša civilizacija još nije ni postojala, mogla bi svakog časa stići do nas. A šta će biti ukoliko projekat uspe da otkrije signale za kojima traga? Tarterova kaže: „Bilo koji signali koji stignu predstavljaće vlasništvo čovečanstva. Oni su poslati planeti Zemlji, a ne NASA-i. Nakon milenijuma pitanja da li smo sami u univerzumu - sva ljudska bića bi trebalo da saznaju da nismo.\" -Ljudsko biće kao anđeo čuvar- Artur C. Klark, rektor Međunarodnog kosmičkog univerziteta i autor knjige Odiseja u svemiru - 2001, veruje da ovo traganje ima ogromnu naučnu i moralnu vrednost. U časopisu \"Life\" on je napisao: Bez obzira na način na koji bi se detektovao, inteligentni život van Zemlje zauvek bi promenio naš pogled na univerzum. U najmanju ruku, to bi dokazalo da inteligencija predstavlja faktor opstanka, uprkos onome Što vidimo u večernjem dnevniku. SETI predstavlja najvišu moguću formu istraživanja i ako prestanemo da istražujemo, prestaćemo da budemo ljudska bića. Međutim, pretpostavimo daje kompletna postavka SETl-a pogrešna i da inteligentni oblik života postoji samo na Zemlji. To bi, naravno, bilo nemoguće dokazati - uvek postoji mogućnost da samo nekoliko svetlosnih godina izvan našeg opsega istraživanja postoje vanzemaljci. Ukoliko, ipak, nakon vekova osluškivanja i osmatranja ne pronađemo nikakve tragove drugih oblika inteligencije van Zemlje, imaćemo podršku da zaključimo da smo jedina inteligencija u univerzumu. \"A to je najstrašnija mogućnost od svih. Mi tek sada počinjemo da cenimo naše obaveze prema planeti Zemlji: ukoliko smo stvarno jedina inteligencija u svemiru, moramo biti i njeni budući anđeli čuvari.\" Nakon miliona godina života u izolaciji, ljudskoj inteligenciji predstoji možda samo deset godina pre nego što shvati da ima kolege u kosmosu. ",
      "words": 1401
    },
    {
      "id": 5,
      "title": "Mozak bebe",
      "text": "Rani razvoj mozga bebe predstavlja period intenzivne neurološke aktivnosti tokom koga dolazi do međupovezivanja moždanih ćelija neverovatnom brzinom. Za mozak ne postoji prerano doba da počne sa učenjem. -\"Rascvetavanje\" mozga- Da bi mozak dostigao punu veličinu potrebno mu je više vremena nego bilo kom drugom organu, a model njegovog rasta značajno je drugačiji. Da li rast veličine predstavlja rast usled deobe ćelija dok telo povećava masu. Mozak, s druge strane, na rođenju ima sve ćelije - zato glave beba deluju nesrazmerno velike u odnosu na ostatak njihovog tela. Istraživanja sprovedena tokom poslednjih deset godina rađena su na osnovu prethodnih dokaza da mozak počinje da razrađuje veze između ćelija još dok je u utrobi, koristeći spontano generisane signale. Otprilike osam nedelja nakon začeća dolazi do prvog \"rascvetavanja\" mozga (termin \"rascvetavanje\" mozga odnosi se na nagli uvećani razvoj  mozga). Tokom sledećih pet nedelja formira se većina nervnih ćelija. Drugo \"rascvetavanje\" mozga počinje otprilike deset nedelja pre rođenja i nastavlja se sve do dve godine nakon rođenja. Period drugog moždanog \"rascvetavanja\" je period intenzivne aktivnosti za moždane ćelije: veze između njih se produbljuju i proširuju. Ovo uvećanje povezanosti rezultira brzim rastom mozga. Na rođenju on ima 25% od težine koju će imati u odraslom dobu, sa šest meseci 50%, sa dve i po godine 75%, a sa pet godina 90%.\nUvod u svet\n Studije su pokazale da dete na rođenju reaguje pozitivno i na određen način na zvuk ljudskog glasa. Kada se film o novorođenoj bebi uspori i pogleda slajd po slajd, uviđamo da su gestikulacije deteta sinhronizovane sa određenim glasovima i slogovima roditelja. Zvuči koje ne proizvodi ljudski glas ne nailaze na takvu reakciju. To nam ukazuje na činjenicu da se određene lingvističke veštine uče još u utrobi. Postoje beba u majčinoj utrobi slušala rad njenog srca, taj zvuk prepoznaje i on je umiruje. Istraživanje o percepciji novorođenčadi, koje je sproveo Tom Bover sa Edinburškog univerziteta, pokazuje da dete od samog rođenja doživljava trodimenzionalni svet. Koristeći polarizovane naočare koje omogućavaju da levo i desno oko vide različite prizore, stvorio je vizuelnu iluziju da se ispred bebe nalazi čvrst objekat. Bover je otkrio da su čak i novorođene bebe izvijale ruke kako bi dotakle objekat ispred sebe, ali bi, kada bi njihove ručice prošle kroz prazan prostor u kome nema objekta, počinjale da plaču. To nam pokazuje da deca po rođenju očekuju da vizuelni objekti budu opipljivi, Što ukazuje na jednostavno jedinstvo čula vida i dodira. -Vid i sluh- Ostali eksperimenti na Edinburškom univerzitetu pokazali su da su vid i sluh integrisani, jer novorođenče okreće svoju glavu u pravcu iz koga dolazi zvuk, naročito ako je to majčin glas. Pokazali su i da se beba rađa sa sposobnošću da prepozna mirise kao prijatne i neprijatne, okrećući glavu ka ili od izvora mirisa. Novorođeno dete takođe može prepoznati ljudsko lice. Robert Franc, istraživač sa Klivlendskog univerziteta, stavljao je pred jedan dan stare bebe slike ljudskog lica, krugova mete, novinske štampe i krugova u bojama. Otkrio je da bebe više pažnje posvećuju ljudskom licu, jer je najveći broj njih mnogo duže gledalo u njega nego u druge predmete. Mark Džonson iz Karnegi Meliona sproveo je slične testove sa novorođenčadima starim tek desetak minuta; primetio je da bebe u značajnoj meri daju prednost slici lica u odnosu na slike ovalnih predmeta ili lica pomešanih sa ostalim predmetima. To nam, prema Džonsonu, ukazuje da se ljudska bića rađaju sa \"šemom\" lica koja im pomaže da razaznaju izvor hrane, topline i zaštite. Bebe kojima se priča kao ljudskim bićima, a ne tepa, imaju veću šansu da steknu osećaj zajezik. Bogato rano okruženje u kome se jedan ili oba roditelja svesno trude da razviju detinje čulno iskustvo, može ubrzati i poboljšati razvoj deteta. Još 1952. Godine Aron Stern je odlučio da svojoj kćeri Edit svesno obezbedi stimulativno okruženje. Od samog rođenja pričao joj je što je više moguće (i to ne tepajući), puštao joj je klasičnu muziku i pokazivao joj kartice na kojima su bile naslikane životinje i napisani brojevi. Ovu tehniku su prihvatili i koristili mnogi drugi roditelji i to uz veoma pozitivne rezultate. -Tobogani, merdevine i točkici- Da bi procenio uticaj bogatog okruženja na razvoj mozga, Mark Rozenvejg sa Kalifornijskog univerziteta u Berkliju dopustio je grupi beba-pacova da rastu u kavezu prepunom tobogana, merdevina, točkica, tunela i drugih stimulusa. Druga grupa beba-pacova ostavljena je u praznim kavezima. Nakon 105 dana pregledani su mozgovi pacova iz ove dve grupe i ispostavilo se da su mozgovi pacova odgajanih u bogatom okruženju imali mnogo više neuronskih veza od mozgova pacova iz kontrolne grupe. Oni su imali i 15% više ćelija, veličina neuronskogtelajebila 15% veća, i stoje možda najvažnije, postojao je veći broj veza među neuronima. Verovanje u biološku programiranost osnovnog znanja leži u osnovi najvećeg broja istraživanja o razvoju beba, i to ne samo po pitanju matematike i fizike, već i ostalih kognitivnih veština. Kada se to osnovno znanje programira, još uvek je neizvesno. Od 1988. godine, kada je na Kalifornijskom Institutu za tehnologiju osmišljen specijalni uređaj sa multi-elektrodama, olakšana je mogućnost detekcije i merenja moždanih ćelija fetusa koje međusobno razmenjuju impulse, praveći, usklađujući i adaptirajući međusobne veze još dok su u utrobi. Studije o takvoj neuronskoj aktivnosti sugerišu da se veze među neuronima razvijaju tokom faze \"rascvetavanja\" mozga, stoje suprotno stavu da su one zapisane u našim genima. S obzirom na milione veza koje je neophodno stvoriti u mozgu, po prethodnoj teoriji bilo bi potrebno uskladištiti mnogo manje genetskih informacija. To bi značilo da se na genetskim šemama radi još dok je beba u utrobi i tokom ranog detinjstva. \nPriroda nasuprot odgoju\n Prethodno izneta hipoteza je relativno nova. Potrebno je još mnogo istraživanja kako bi se ona razvila i dokazala. To bi obezbedilo novu, značajnu spoznaju po pitanju debate o važnosti prirode i odgoja. Na polju istraživanja koja obuhvataju mnoštvo teorija, studija i zaključaka, otkrića o potencijalu beba potaknutog pravim stimulusima i dalje će ohrabrivati roditelje. Vitalni uticaj odgoja roditeljima daje šansu da pomognu svojim potomcima stoje moguće više, na način koji smatraju daje ispravan i izvodljiv. Naša svest o bebinim mentalnim sposobnostima i kapacitetima raste, bez obzira da li su one genetski programirane ili se javljaju usled veza koje se među neuronima stvaraju dok je beba još u majčinoj utrobi i u prvih nekoliko kritičnih meseci po rođenju. Bez obzira koji način roditelji odaberu da ohrabre i poboljšaju mentalni razvoj svog deteta, moraju uzeti u obzir dve ključne stvari. Prvo, mora se voditi računa o kontinuitetu. Dete čije su sposobnosti razvijenije od sposobnosti njegovih vršnjaka moglo bi ih namerno skrivati kako se ne bi razlikovalo od ostale dece i izazivalo ljubomorno ruganje. Drugo, mora se obratiti pažnja da se ispoštuju želje i interesovanja deteta koje se razvija. Bez obzira što su uložili mnogo vremena, emocija i nade, roditelji moraju svesno ograničiti količinu kontrole nad načinom na koji će dete koristiti plodove njihovog rada. Osnovna stvar je sreća i ispunjenost deteta, a radost roditeljstva leži u aktivnoj ulozi koju mogu preuzeti da dete to i postigne. ",
      "words": 1184
    },
    {
      "id": 6,
      "title": "Zemlja koja se budi: naš sledeći evolutivni skok - globalni mozak",
      "text": "Danas je uobičajeno pričati o sve većoj brzini života i nostalgično se prisecati opuštenog života naših predaka. Međutim, kratak uvid u istoriju evolucije otkriva da sve veće ubrzanje nije novina; ono postoji otkada i univerzum, već nekih 15 milijardi godina. Pošto nismo u stanju da doživimo period od nekoliko milijardi godina, veoma nam je teško da osetimo ovo ubrzanje. Opipljiviji utisak možemo obezbediti ukoliko sabijemo ovih 15 milijardi godina u film koji bi trajao godinu dana i predstavljao vrhunski ep! \"Veliki prasak\" sa početka filma, traje samo delić sekunde - univerzum je \"kreiran\" u prvoj sekundi prvog dana ove Nove godine! Prvi atomi su formirani nekih 25 minuta nakon što ste otpevali pesmu \"Stara dobra vremena\"! Do kraja prvog dana ne dešavaju se nikakve druge značajnije promene, niti do kraja januara meseca (biće vam potrebno mnogo kokica): sve što film u tom periodu prikazuje jeste oblak gasa koji se širi. Oko februara i marta, oblaci gasa počinju polako da se kondenzuju u skupine galaksija i zvezda. Kako nedelje i meseci prolaze, zvezde povremeno eksplodiraju u supernove, nove zvezde kondenzuju se od njihovih ruševina. Naše Sunce i solarni sistem konačno su formirani početkom septembra - tek posle osam meseci filma. Nakon što se Zemlja formirala, stvari počinju da se odvijaju nešto brže kako kompleksni molekuli počinju da se oblikuju. Za dve nedelje, početkom oktobra, pojavljuju se jednostavne alge i bakterije. Potom sledi relativno zatišje (i opet kokice dolaze u prvi plan!) dok bakterije sporo evoluiraju, da bi se nedelju dana kasnije razvila fotosinteza. Sredinom novembra, evoluiraju kompleksne ćelije sa dobro definisanim jezgrom, što omogućava seksualnu reprodukciju i, nakon dostizanja ovog stadijuma, evolucija se ponovo ubrzava. Sada je kraj novembra i najveći deo filma ste već odgledali. Evolucija života je, međutim, tek otpočela. Prvi jednostavni višećelijski organizmi javljaju se početkom decembra. Prvi kičmenjaci puzeći izlaze iz mora na kopno otprilike nedelju dana kasnije. Dinosaurusi vladaju kopnom najvećim delom poslednjenedelje filma, od 25. decembra do 30. decembra u podne - kakva duga i plemenita vladavina! Naši rani majmunoliki (ili delfinoliki?) preci pojavljuju se oko i podneva poslednjeg dana, ali ne uzdižu se na dve noge pre jedanaest sati uveče. Sada, pred doček Nove godine i nakon 365 dana i noći trajanja filma, dolazimo do najfascinantnijih događaja. Ljudski jezik počinje da se razvija minut i po pre ponoći. U poslednjih pola minuta čovek počinje da obrađuje zemlju. Buda dostiže prosvetljenje pet i po sekundi pre kraja filma, a Hristos se pojavljuje sekund kasnije. Industrijska revolucija javlja se u poslednjih pola sekunde, a Drugi svetski rat manje od desetinke pre ponoći. Došli smo do poslednjeg kadra, poslednjeg milimetra filma dugog 160 hiljada kilometara. Ostatak moderne istorije dešava se u bljesku koji ne traje ništa duže od bljeska sa početka filma. Pored toga, evolucija nastvlja da se ubrzava, i to rapidno ubrzanje ne pokazuje nikakve znake stišavanja. Brzina promena na mnogim područjima aktivnosti sada je tako velika daje teško predvideti gde ćemo biti za pedeset godina, a kamoli imati ideju o civilizaciji kroz hiljadu ili milion godina. Postaje sve teže izbeći zaključak da se mi danas stvarno nalazimo na jedinstvenoj tački evolucije. U određenom smislu, čovečanstvo počinje da se ponaša poput l planetarnog nervnog sistema, i nalazimo blisku paralelu između faza razvoja mladog ljudskog mozga i onoga što se dešava čovečanstvu. Godine 1980. svetska telekomunikaciona mreža sastojala se od 440 miliona telefonskih aparata i skoro milion teleks mašina. Ipak, ova mreža, ma koliko komplikovano delovala, predstavlja samo mali deo komunikacionih terminala u mozgu, biliona sinapsi pomoću kojih komuniciraju nervne ćelije. Prema Džonu Mek Nultiju, britanskom kompjuterskom savetniku, globalna telekomunikaciona mreža 1975. I godine nije bila kompleksnija od dela mozga manjeg od zrna graška. Ali sveukupan kapacitet obrade podataka udvostručuje se na svake dve i po godine i ukoliko se ta stopa uvećanja održi, globalna telekomunikaciona mreža mogla bi dostići kompleksnost mozga do 2000-te godine -ukoliko vam se ovo čini kao neverovatno kratko vreme, uzmite u obzir ubrzanje tokom poslednjih sat vremena pre ponoći u našem jednogodišnjem filmu i pomnožite to ubrzanje promena brojem sati između ponoći 1. januara 1997. godine i novogodišnje večeri koja će nas uvesti u dvadeset prvi vek. Promene koje će uslediti biće tako velike da će njihov uticaj verovatno zapanjiti čak i imaginaciju našeg neograničenog mozga! Više nećemo videti sebe kao izolovane pojedince; znademo da smo deo globalne mreže koja se ubrzano integriše, da smo nervne ćelije globalnog mozga koji se budi. Međutim, iako ovo može biti moguć pravac razvoja čovečanstva, takođe je veoma jasno daje naša vrsta u stanju jake krize i da će biti neophodna svrsishodna i kreativna akcija kako bi doživela sledeći vek. Duboko smo upali u najkompleksniju mrežu socijalne, političke, ekonomske, ekološke i moralne krize u ljudskoj istoriji. Hoće li ova kriza sprečiti evolutivni skok? Možda. Svakako imamo brojne predstave o kraju sveta koje razmatraju mogućnost apokalipse, ali istorija evolucije otkriva sasvim drugačiji mogući scenario - da bi križa mogla biti evolutivni katalizator u prelasku na viši nivo uređenosti. Razmotrimo neke od glavnih kriza u evoluciji i pogledajmo na koji načinje ono stoje moglo izgledati kao \"negativno\", u stvari bilo veoma pozitivno u evolutivnom smislu. Jedna od ranih kriza evolucije života verovatno se javila kada je došlo do nestašice jednostavnih organskih jedinjenja kojima su se hranile prve primitivne ćelije. Postojala je, u stvari, kriza hrane. Reakcija na to bila je evolucija fotosinteze - sposobnosti da se do hrane dođe direktno od sunčeve svetlosti. Fotosinteza je, pak, kao nus-proizvod, proizvodila kiseonik, i iako mi danas u njemu živimo sasvim srećno, za bića tog vremena, on je značio smrt. Milijardu i po godina kasnije, kako je kiseonik počeo da se nakuplja u atmosferi, došlo je do druge velike krize, ovaj put usled zagađenja i otrova. Reakcija evolucije bila je razvoj ćelija koje udišu kiseonik. U početku svaka kriza deluje bolno i opasno. Zamislite šta bi komitet bakterija rekao o uticaj u plana male grupe bakterija o korišćenju fotosinteze: \"Kiseonik koji bi bio proizveden ovim procesom predstavlja opasnu stvar. On je otrovan za sve poznate forme života i takođe je zapaljiv, pa se svi možemo pretvoriti u pepeo. Skoro je sigurno da bi to dovelo do uništenja života.\" Nema sumnje da bi fotosinteza bila odbačena kao „sebična, neprirodna i neodgovorna\". Srećom po nas, takav komitet nije postojao i fotosinteza se pojavila. Ona je, doduše, dovela do velike krize, ali s druge strane, doprinela je pojavi biljaka, životinja, vas i mene. Može se ispostaviti daje trenutni skup globalnih problema od iste važnosti za nastavak naše evolucije kao što je to bila i kriza oko kiseonika. Nikada u istoriji ljudske rase opasnost nije bila tako velika, i izgleda da se brzo približavamo kritičnoj tački. Rezultat će biti ili raspad ili proboj. U svojoj ulozi evolutivnih katalizatora, krize bi se mogle pokazati kao nešto što nam je potrebno da bi nas gurnule na viši nivo. Ideja da kriza ima i negativan i pozitivan aspekt odslikana je u kineskoj reci za krizu: vei-či. Prvi deo reci znači „pazi, opasnost\". Drugi deo, pak, ima potpuno drugačije značenje. On znači: \"šansa za promenu\". Vei-či koncept nam dopušta da cenimo važnost oba aspekta krize. Poslednjih godina naša pažnja je uglavnom bila fokusirana na \"vei\", na mnoge mogućnosti gobalne katastrofe i načine na koje bi se ona mogla izbeći. To će i dalje biti neophodno dok se budemo borili sa izrazito stvarnim problemima sa kojima se suočavamo. Istovremeno možemo preispitati neke od naših osnovnih stavova i vrednosti: Zašto smo ovde? Šta stvarno želimo? Zar život nije nešto više? Preispitivanje nas otvara za drugi aspekt krize - šansu za promenu pravca, za izvlačenje koristi iz čudesnih šansi koje će se naći pred nama. Ukoliko ne napravimo ovu tranziciju, moglo bi proći na hiljade godina pre nego što se čovečanstvo ponovo nađe na sličnom pragu. Ili bi se moglo desiti da ljudska vrsta više nikada ne doživi takvu šansu. Ukoliko zbrišemo sebe sa lica zemlje, moglo bi proći mnogo miliona godina dok ne evoluiraju druge vrste sa istim potencijalom. Moglo bi se desiti da do toga više ne dođe na ovoj planeti; ali postoji mnogo drugih planeta u našoj galaksiji i mnoštvo drugih galaksija. Univerzum će nastaviti da evoluira ka višim nivoima integracije i kompleksnosti, bez obzira na nas. Ako, s druge strane, čovečanstvo pronađe način da razreši različite probleme i konflikte sa kojima je suočeno, dokazalo bi da se uspešno može adaptirati. U tom smislu krize služe i kao evolutivni katalizatori i kao evolutivni testovi, ispitujući adaptibilnost i žilavost sistema. Sve veći set kriza sa kojim se čoveČanstvo trenutno susreće mogao bi se sagledati u sledećem svetlu: možda smo stigli do konačnog testa žilavosti pred sledeću etapu evolucije. Uz to, ovaj test je vremenski ograničen. Za eksperimente nemamo na raspolaganju eone; mi smo ti koji su danas živi i koji moramo odgovoriti na ova pitanja kako bismo održali evolutivni proces. Da li ćemo test položiti ili ne, zavisi od nas. Ukoliko ga položimo, mogli bismo preći u sledeću evolutivnu fazu. Na nama je da pokažemo da li je čovečanstvo žilavo ili ne - na svakome od nas. Za razliku od drugih vrsta iz prošlosti, čovečanstvo je, zahvaljujući neverovatnom mozgu, u stanju da predvidi budućnost, donese svesne odluke i namerno promeni sopstvenu sudbinu. Po prvi put u kompletnoj istoriji evolucije, odgovornost za nastavak evolucije leži na samom evolutivnom materijalu. Više nismo pasivni svedoci procesa - mi možemo aktivno oblikovati budućnost. Sada smo kustosi evolutivnog procesa na Zemlji. U našim rukama - ili bolje, na našim mozgovima i umovima - leži evolucija budućnosti ove planete.",
      "words": 1594
    },
    {
      "id": 7,
      "title": "Vaš mozak - začarani razboj",
      "text": "-Ljudski mozak i njegov potencijal- Ljudski mozak je začarani razboj na kome milioni čunaka pletu raskinute mustre, mustre koje uvek imaju značenje, iako nikada nisu trajne. To je poput Mlečnog puta koji je naišao na neki kosmički ples.Poređenje mozga sa galaksijom, u suštini je skormna analogija. Svaka osoba na našoj planeti u sebi nosi ovu masu tkiva tešku oko kilogram i po i ne razmišljajući previše o njoj; a svaki normalni mozak sposoban je da napravi više šematskih veza nego što postoji atoma u univerzumu. Mozak se sastoji od oko 10 milijardi nervnih ćelija i svaka od njih je sposobna da učestvuje u serijama kompleksnih veza hiljadama puta u jednoj sekundi. Samo u matematičkom smislu, kompleksnost je zapanjujuća. U mozgu postoji deset milijardi neurona i svaki od njih ima potencijal za 1028 veza. Da biste ovo bolje shvatili možemo reći da bi teoretski, broj potencijalnih veza u vašem mozgu, ukoliko bi se ispisao, izgledao kao broj koji bi počinjao cifrom 1 iza koje bi sledilo deset i po miliona kilometara nula. Sve to je, naravno, potencijal i, uprkos detaljnim otkrićima neuro-fiziologije, to stoje to potencijal vašeg mozga je najuzbudljivije. Neporecivo je da svi nedovoljno koristimo mozak-ako ga, čak, ne koristimo i pogrešno. To ne iznenađuje. Veoma mali broj nas će ikada videti ljudski mozak. Oni koji su ga videli, ne opisuju taj prizor kao naročito fascinantan. Razumljivo je da će koncernti pijanista ili stolar iznad svega ceniti svoje ruke, da će slikar voditi računa o očima, a da će trkač brinuti o svojim nogama. Ali ruke su jednako nekorisne bez mozga kao i klavir bez pijaniste. Moždani potencijal umnogome je potcenjivan upravo zbog svoje sveprisutnosti. Uključenje u sve što radimo, u sve što nam se dešava, pa primećujemo samo ono stoje različito u svakom iskustvu, previdevši ono bez čega nam ništa ne bi bilo moguće. Svi smo bili previše okupirani razlikama, a ne potencijalom u jednom drugom, važnijem smislu. Pošto smo znali da mozak postoji, najveći deo vremena posvetili smo naporima da demonstriramo razlike između raznih mozgova, umesto razvitku sistema za njegovo poboljšanje. Ovo se ne odnosi samo na obrazovanje, gde prolazna ili loša ocena predstavljaju osnovni kriterij um, već i na sve ostale aspekte našeg života. Mi smo Amerikanci ili Kinezi, učenici ili seljaci, umetnici ili naučnici. Ove razlike, naravno postoje, i bilo bi glupo potpuno ih odbaciti. Ali, važna je i pojedinačna sposobnost svakog mozga. U svakoj glavi nalazi se ogromna elektrana, kompaktan, efikasan organ čiji kapacitet izgleda sve veći što više učimo o njemu. Džon Rajder Plat rekao je sledeće: Ako bi se ovaj naš kompleksan posed mogao nekako transformisati u vidljivu svetlost koja bi bilajasnija našim čulima, biološki svet postao bi pokretno polje svetlosti u odnosu na fizički svet. Sunce bi, sa svim svojim velikim erupcijama, bilo jednostavno bledo u odnosu na ružin grm, kišna glista bi bila poput svetionika, pas poput osvetljenog grada, a ljudska bića bi se isticala poput blještećih sunaca kompleksnosti, koja međusobno razmenjuju svetlosne snopove značenja kroz tamnu noć fizičkog sveta koji se nalazi između njih. Bili bismo isuviše svetli jedni drugima za oči. Pogledajte oreole nad glavama svojih retkih i složenih kolega. Pa zar nije tako? Osnova ovog \"kompleksnog poseda\" je nervna ćelija - neuron. Čak i tako mikroskopski mali, veoma su kompleksni. Neuroni se od ostalih ćelija razlikuju po tome što su komplikovanijeg oblika i imaju mnogo produžetaka koj i se mogu povezati sa produžecima drugih neurona kako bi preneli nervne impulse. U okviru nervnog sistema, neuroni imaju veoma različitu veličinu. Neki od njih, koji se prostiru od nožnih ili ručnih prstiju do kičmene moždine, mogu biti dugački i čitav metar. Drugi, u cerebralnom korteksu na primer, manji su i do sto puta. Sve što radimo, bilo da pokrenemo mišić ili razmišljamo o velikim stvarima, zahteva komplikovano nervno funkcionisanje. Međutim, bez obzira na vrstu aktivnosti, proces je sličan i zasniva se na eksitaciji neurona. Proces obuhvata prenos elektrohemijskih signala od jednog do drugog neurona: i to nije jednosmeran i spor, već brz proces koji obuhvata višestruke talase komunikacije. Svaki neuron ima osnovno telo koje se sastoji od određenih hemijskih i genetskih informacija i akson koji upravlja vitalnim nervnim impulsima. Takođe ima i različit broj razgranatih dendrita. Oni predstavljaju prijemnike impulsa ili informacija, ili direktno od čulnog organa ili, što je češći slučaj, od drugih neurona u tapiseriji njihovih međusobnih veza. Tačna lokacija transmisije impulsa od jednog do drugog neurona je sinapsa u koju informacija \"utiče\" preko mikroskopske praznine koja podseća na prazninu kod svećice ili distributivne tačke kod motora sa unutrašnjim sagorevanjem. Fizički i hemijski aspekt ovog procesa neverovatno je složen. U sinapsi se luče hemijske supstance koje omogućavaju transmisiju električnih impulsa, a sinapsa ima prag koji utiče na način na koji će impuls biti primljen. Kod poznate ili refleksneaktivnosti, taj prag je niži, pa se kolo lakše uspostavlja. Viši prag označava daje transmisija signala teža. Impuls jednog neurona uzrokuje aktivnost u sinapsama koje formira sa drugim neuronima i čak i najjednostavniji mentalni ili fizički proces uključuje prijem i transmisiju impulsa na stotine neurona u kompleksnoj kaskadi talasa komunikacija i međusobne saradnje. Na stotine hiljada neuronskih \"poruka\" u sekundi predstavlja nešto potpuno uobičajeno. Dakle, sve što radimo i doživimo podrazumeva složene bio-električne procese - od igranja tenisa do plaćanja računa. To nije tako zbunjujuće kao što izgleda. Znamo da oči, u stvari, ne vide same po sebi: one, prosto, predstavljaju sočiva. Uši, u stvari, ne čuju same po sebi: one su, da tako kažemo, mikrofoni. Kada gledamo kriket meč na televiziji, mi ne vidimo same igrače, već njihove elektronske prikaze. Između mačke koju gledate i prizora te mačke u mozgu stoji serija neurofizioloških procesa, baš kao što i između stvarnog kriket meča i slike na televiziji stoji serija elektronskih procesa. Naš mozak je, skoro bukvalno, sve. Možemo mu dati više, a zauzvrat, i uz to, on može mnogo dati nama. Mozak je naše tajno, skriveno oružje. Kada bismo samo mogli da u većoj meri počnemo da koristimo njegovu moć, stvarno bismo videli svetio koje bi bilo naporno za naše oči, ali bi nas i zapanjilo. Da ponovo citiram Džona Rajdera Plata: Mnogi od današnjih najosetljivijih duhova još uvek čoveka vide kao anti-heroja; kao bespomoćnu žrtvu oružja i ratova, vlada i mehanizama i organizacija koje uništavaju dušu; kao kompjuter - što čovek i jeste. Ali usred ove nehumane entropije koju je sam čovek stvorio, poput četvrtog zakona o čoveku, čak i u laboratorij ama raste saznanje daje čovek i misteriozan i neuhvatljiv, samoodređujući i večan. Svetionik kompleksnosti i dete koje organizuje univerzum. Opremljen kako bi stao i birao i delovao i kontrolisao i postojao.",
      "words": 1113
    }
  ],
  "tests": [
    {
      "id": 1,
      "question": "1. 80% vrhunskih britanskih kompanija investira značajne sume novca i vremena na obuku zaposlenih.",
      "answers": [
        "Tačno",
        "Pogrešno"
      ],
      "correctAnswer": "Pogrešno"
    },
    {
      "id": 2,
      "question": "2. Nacionalni olimpijski komiteti posvećuju i do: (vremena predviđenog za treninge na razvoj pozitivnog mentalnog stava, mentalne jačine i vizuelizaciju)",
      "answers": [
        "a) 20%",
        "b) 30%",
        "c) 40%",
        "d) 50%"
      ],
      "correctAnswer": "c"
    },
    {
      "id": 3,
      "question": "3. Prva osoba koju je neka vlada postavila za Ministra za inteligenciju je:",
      "answers": [
        "a) dr Marion Dajmond",
        "b) dr Luis Alberto Mačado",
        "c) Dominik O'Brajan",
        "d) Platon"
      ],
      "correctAnswer": "b"
    },
    {
      "id": 4,
      "question": "4. Brojevi potpadaju uglavnom pod funkciju leve moždane hemisfere.",
      "answers": [
        "Tačno",
        "Pogrešno"
      ],
      "correctAnswer": "Tačno"
    },
    {
      "id": 5,
      "question": "5. Ajnštajni, Njutni, Sezani i Mocarti ovog sveta bili su uspešni zato što su primarno kombinoval i:",
      "answers": [
        "a) brojeve sa logikom",
        "b) reci sa analizom",
        "c) boju sa ritmom",
        "d) analizu sa imaginacijom"
      ],
      "correctAnswer": "d"
    },
    {
      "id": 6,
      "question": "6. Kod pravljenja mapa uma vi:",
      "answers": [
        "a) u centar stavljate sliku",
        "b) u centar stavljate reč",
        "c) ne stavljate ništa u centar",
        "d) uvek u centar stavljate reč i sliku"
      ],
      "correctAnswer": "a"
    },
    {
      "id": 7,
      "question": "7. Koristeći nove tehnike super brzog i opširnog čitanja, trebalo bi da budete sposobni da postignete novu normalnu brzinu čitanja od preko:",
      "answers": [
        "a) 500 reci u minutu",
        "b) 1000 reci u minutu",
        "c) 10.000 reci u minutu",
        "d) 100.000 reci u minutu"
      ],
      "correctAnswer": "b"
    },
    {
      "id": 8,
      "question": "8. Dve kompanije koje su formirale jedinice intelektualnih \"komandosa\" za učenje materijala bile su:",
      "answers": [
        "a) \"IBM\" i \"Coca Cola\" ",
        "b) \"Digital\" i \"Nabisco\"",
        "c) \"Nabisco\" i \"Microsoft\" ",
        "d) \"IBM\" i \"ICL\""
      ],
      "correctAnswer": "b"
    },
    {
      "id": 9,
      "question": "9. Mnemoničke tehnike po prvi put su osmislili:",
      "answers": [
        "a) Kinezi",
        "b) Rimljani",
        "c) Grci",
        "d) Platon"
      ],
      "correctAnswer": "c"
    },
    {
      "id": 10,
      "question": "10. Nakon sat vremena dolazi do:",
      "answers": [
        "a) 500 reci u minutua) kratkotrajnog rasta sposobnosti prisećanja informacija",
        "b) stabilizacije sposobnosti prisećanja informacija ",
        "c) kratkotrajnog slabljenja sposobnosti prisećanja informacija",
        "d) vrtoglavog slabljenja sposobnosti prisećanja informacija"
      ],
      "correctAnswer": "a"
    },
    {
      "id": 11,
      "question": "11. Dvadeset četiri sata nakon učenja, često se gubi sledeći procenat detalja:",
      "answers": [
        "a) 60%",
        "b) 70%",
        "c) 80%",
        "d) 90%"
      ],
      "correctAnswer": "c"
    },
    {
      "id": 12,
      "question": "12. Broj moždanih ćelija prosečnog mozga iznosi:",
      "answers": [
        "a) milion",
        "b) hiljadu miliona",
        "c) milion miliona",
        "d) hiljadu milijardi"
      ],
      "correctAnswer": "c"
    },
    {
      "id": 13,
      "question": "13. Krej kompjuter konačno se približava kapacitetu mozga u sveukupnoj sposobnosti računanja.",
      "answers": [
        "Tačno",
        "Pogrešno"
      ],
      "correctAnswer": "Pogrešno"
    },
    {
      "id": 14,
      "question": "14. Dr Marion Dajmond nedavno je potvrdila da:",
      "answers": [
        "a) ne postoje dokazi da starenjem dolazi do gubitka moždanih ćelija kod normalnog, aktivnog i zdravog mozga",
        "b) ne postoje dokazi da starenjem dolazi do gubitka moždanih ćelija kod bilo čijeg mozga",
        "c) ne postoje dokazi da starenjem dolazi do gubitka moždanih ćelija kod osoba koje su mlađe od 40 godina",
        "d) postoje dokazi o manjem gubitku moždanih ćelija tokom starenja kod normalnog, aktivnog i zdravog mozga."
      ],
      "correctAnswer": "a"
    },
    {
      "id": 15,
      "question": "15. Uz adekvatnu obuku, statistički značajna i trajna poboljšanja inteligencije mogu se postići kod osoba sve do:",
      "answers": [
        "a) 60 godina starosti",
        "b) 70 godina starosti",
        "c) 80 godina starosti",
        "d) 90 godina starosti"
      ],
      "correctAnswer": "d"
    },
    {
      "id": 16,
      "question": "1. Sve umetnosti potiču iz:",
      "answers": [
        "a) Afrike",
        "b) praistorijskog doba",
        "c) ranog gvozdenog doba",
        "d) Delte Nila"
      ],
      "correctAnswer": "b"
    },
    {
      "id": 17,
      "question": "2. Koliko znamo, prva umetnička \"remek-dela\" napravljena su između:",
      "answers": [
        "a) 100.000 i 50.000 god. p. n. e.",
        "b) 50.000 i 40.000 god. p. n. e.",
        "c) 40.000 i 10.000 god. p. n. e.",
        " d) 10.000 i 5.000 god. p. n. e."
      ],
      "correctAnswer": "c"
    },
    {
      "id": 18,
      "question": "3. Afrički Bušmani, za razliku od pećinskog čoveka, nisu pokazivali veliko interesovanje za životinje.",
      "answers": [
        "Tačno",
        "Pogrešno"
      ],
      "correctAnswer": "Pogrešno"
    },
    {
      "id": 19,
      "question": "4. Tipično primitivno društvo u najvećoj meri je u umetnosti zainteresovano za:",
      "answers": [
        "a) slikanje",
        "b) lov",
        "c) religiju",
        "d) rat"
      ],
      "correctAnswer": "c"
    },
    {
      "id": 20,
      "question": "5. Drevne Mediteranske slike na zidu poznate su po:",
      "answers": [
        "a) finim konturama i blještavim bojama",
        "b) finim konturama, ujednačenim bojama",
        "c) jasnim konturama, blještavim bojama",
        "d) jasnim konturama, ujednačenim bojama"
      ],
      "correctAnswer": "d"
    },
    {
      "id": 21,
      "question": "6. Na egipatskim slikama na zidovima grobnica, ženske figure su obično obojene u:",
      "answers": [
        "a) oker",
        "b) žuto",
        "c) braon",
        "d) crveno"
      ],
      "correctAnswer": "b"
    },
    {
      "id": 22,
      "question": "7. Prvi trag slika u modernom smislu baziranje na:",
      "answers": [
        "a) autentičnim radovima Zeuksa i Apelesa",
        "b) velikih grčkih slikara vaza",
        "c) kopijama grčkih slika nađenih u iskopinama Pompeje i Herkulanuma",
        "d) Italijanskoj renesansi"
      ],
      "correctAnswer": "c"
    },
    {
      "id": 23,
      "question": "8. prvi primeri pejzaža nađeni su:",
      "answers": [
        "a) prilikom iskopavanja Grčkih gradova",
        "b) u egipatskim grobnicama",
        "c) u vilama bogatih Rimljana",
        "d) u radovima Krićana"
      ],
      "correctAnswer": "c"
    },
    {
      "id": 24,
      "question": "9. U vizantijskoj umetnosti, glavna tema umetnika bilo je hrišćanstvo.",
      "answers": [
        "Tačno",
        "Pogrešno"
      ],
      "correctAnswer": "Tačno"
    },
    {
      "id": 25,
      "question": "10. Veliki trijumf vizantijske slikarske umetnosti dostignut je u:",
      "answers": [
        "a) mozaiku",
        "b) vazama",
        "c) tepisima",
        "d) slikama trijumfa vizantijskog carstva"
      ],
      "correctAnswer": "a"
    },
    {
      "id": 26,
      "question": "11. Ikona je bila stalno prisutna u vizantijskoj umetnosti.",
      "answers": [
        "Tačno",
        "Pogrešno"
      ],
      "correctAnswer": "Tačno"
    },
    {
      "id": 27,
      "question": "12. Vizantijska škola umetnosti trajala je otprilike:",
      "answers": [
        "a) 110 godina",
        "b) 500 godina",
        "c) 1000 godina",
        "d) 1100 godina"
      ],
      "correctAnswer": "d"
    },
    {
      "id": 28,
      "question": "13. Ranohrišćanska umetnost je:",
      "answers": [
        "a) kopirala klasičnu umetnost",
        "b) izbegavala realistične opise ljudskih likova",
        "c) uvećala predstavljanje ljudskih likova",
        "d) nije bila zainteresovana za ljudske likove"
      ],
      "correctAnswer": "b"
    },
    {
      "id": 29,
      "question": "14. Otac moderne umetnosti je:",
      "answers": [
        "a) Gil",
        "b) El Greko",
        "c) Sezan",
        "d) Pikaso"
      ],
      "correctAnswer": "c"
    },
    {
      "id": 30,
      "question": "1. Kitovi ubice:",
      "answers": [
        "a) govore nekoliko različitih jezika na nekoliko različitih dijalekata",
        "b) govore jedan jezik na mnogo različitih dijalekata",
        "c) govore različite jezike istim dijalektom",
        "d) govore isti jezik sa različitm brojem različitih dijalekata."
      ],
      "correctAnswer": "a"
    },
    {
      "id": 31,
      "question": "2. Kitovi ne pripadaju istom \"lingvističkom klubu\" kao i ljudi, primati i foke.",
      "answers": [
        "Tačno",
        "Pogrešno"
      ],
      "correctAnswer": "Pogrešno"
    },
    {
      "id": 32,
      "question": "3. Dijalekti kitova ubica sastavljeni su od zvižduka i poziva koje oni koriste kada:",
      "answers": [
        "a) se orjentišu uz pomoć eho-lokacije",
        "b) komuniciraju pod vodom",
        "c) vode ljubav",
        "d) upozoravaju na opasnost"
      ],
      "correctAnswer": "b"
    },
    {
      "id": 33,
      "question": "4. Zabeleženi slučajevi govore da su kitovi ubice:",
      "answers": [
        "a) povremeno napadali ljude",
        "b) redovno napadali ljude",
        "c) nikada nisu napali ljude",
        "d) napadali, ali ne i ubijali ljude"
      ],
      "correctAnswer": "c"
    },
    {
      "id": 34,
      "question": "5. Kitovi koji zvižde nalaze se u:",
      "answers": [
        "a) samo toplim okeanima",
        "b) samo hladnim okeanima",
        "c) samo u Atlantskom i Arktičkom okeanu",
        "d) svim glavnim okeanima sveta"
      ],
      "correctAnswer": "d"
    },
    {
      "id": 35,
      "question": "6. Porodična grupa kitova naziva se:",
      "answers": [
        "a) Jato",
        "b) Čopor",
        "c) Stado",
        "d) Krdo"
      ],
      "correctAnswer": "a"
    },
    {
      "id": 36,
      "question": "7. Najveći broj zvukova koje proizvode kitovi zviždači su:",
      "answers": [
        "a) iznad opsega ljudskog sluha",
        "b) ispod opsega ljudskog sluha",
        "c) u opsegu ljudskog sluha",
        "d) ne mogu se detektovati"
      ],
      "correctAnswer": "c"
    },
    {
      "id": 37,
      "question": "8. Koliko posebnih poziva proizvodi prosečna porodica kitova? ",
      "answers": [
        "a) 8",
        "b) 10",
        "c) 12",
        "d)20"
      ],
      "correctAnswer": "c"
    },
    {
      "id": 38,
      "question": "9. Dijalekti kitova:",
      "answers": [
        "a) ne postoje",
        "b) b) prenose se sa generacije na generaciju",
        "c) razlikuju se od generacije do generacije",
        "d) su u osnovi isti"
      ],
      "correctAnswer": "b"
    },
    {
      "id": 39,
      "question": "10. Koliko dugo je, prema Fordovoj proceni, potrebno dijalektu da se razvije?",
      "answers": [
        "a) godinu dana",
        "b) 10 godina",
        "c) jedna generacija",
        "d) vekovi"
      ],
      "correctAnswer": "d"
    },
    {
      "id": 40,
      "question": "11. Džon Ford je, proučavajući \"akustičnu prefinjenost\" kita koji zviždi, konačno identifikovao osnovnu gramatičku strukturu njihove komunikacije.",
      "answers": [
        "Tačno",
        "Pogrešno"
      ],
      "correctAnswer": "Pogrešno"
    },
    {
      "id": 41,
      "question": "12. Visok nivo razvijenosti malog mozga u delfinskoj porodici verovatno je povezan sa činjenicom da je: ",
      "answers": [
        "a) delfinima potreban veći mozak kako bi mogli da komuniciraju",
        "b) delfini funkcionišu na trodimenzionalan način",
        "c) okeansko okruženje utiče na veću veličinu mozga",
        "d) delfin za evoluciju imao mnogo više vekova nego čovek"
      ],
      "correctAnswer": "b"
    },
    {
      "id": 42,
      "question": "13. U poznatoj knjizi Džona Lilija, delfini sa povezom na očima bili su sposobni da koriste eho-lokaciju kako bi na daljinu razaznali predmete u odnosu na njihov: ",
      "answers": [
        "a) oblik",
        "b) strukturu",
        "c) gustinu",
        "d) boju"
      ],
      "correctAnswer": "c"
    },
    {
      "id": 43,
      "question": "14. Kratak pogled na mozak bebe delfina ukazuje na retko spakovane neurone.",
      "answers": [
        "Tačno",
        "Pogrešno"
      ],
      "correctAnswer": "Pogrešno"
    },
    {
      "id": 44,
      "question": "15. Mozak delfina može:",
      "answers": [
        "a) čuti boje",
        "b) okusiti zvuke",
        "c) videti zvuke",
        "d) okusiti boje"
      ],
      "correctAnswer": "c"
    },
    {
      "id": 45,
      "question": "1. Koliko je traganja za inteligentnim životom u univerzumu sprovedeno od 1960. godine do danas?",
      "answers": [
        "a) 60",
        "b) 80",
        "c) 55",
        "d) 75"
      ],
      "correctAnswer": "b"
    },
    {
      "id": 46,
      "question": "2. Kada je ljudska rasa lansirala najveći projekat traganja za novim inteligencijama u istoriji?",
      "answers": [
        "a) na stogodišnjicu Kolumbovog otkrića Amerike",
        "b) na pedesetogodišnjicu lansiranja prvog satelita",
        "c) na petstogodišnjicu Kolumbovog otkrića Amerike",
        "d) nije bio u pitanju nijedan posebno važan istorijski datum"
      ],
      "correctAnswer": "c"
    },
    {
      "id": 47,
      "question": "3. SETI je projekat potrage za zemaljskom inteligencijom.",
      "answers": [
        "Tačno",
        "Pogrešno"
      ],
      "correctAnswer": "Pogrešno"
    },
    {
      "id": 48,
      "question": "4. NASA traga za radio-talasima koji su svoj put ka Zemlji otpočeli brzinom svetlosti pre:",
      "answers": [
        "a) milion godina",
        "b) sto miliona godina",
        "c) milijardu godina",
        "d) deset milijardi godina"
      ],
      "correctAnswer": "d"
    },
    {
      "id": 49,
      "question": "5. Prethodni najveći pokušaj traganja za bićima u svemiru insipirisao je 1974. godine:",
      "answers": [
        "a) Frenk Drejk",
        "b) Karl Sagan",
        "c) predsednik Kenedi",
        "d) Mensa"
      ],
      "correctAnswer": "a"
    },
    {
      "id": 50,
      "question": "6. Godine 1974. u svemir je poslata kodirana poruka ka skupini zvezda u sazvežđu:",
      "answers": [
        "a) Jupiter",
        "b) Orion",
        "c) Herkules",
        "d) Škorpion"
      ],
      "correctAnswer": "c"
    },
    {
      "id": 51,
      "question": "7. U okviru kodirane poruke uključenje prikaz našeg Sunca i devet planeta.",
      "answers": [
        "Tačno",
        "Pogrešno"
      ],
      "correctAnswer": "Tačno"
    },
    {
      "id": 52,
      "question": "8. Prilikom najnovijih napora, koliko će najmanje radio-teleskopa biti na stalnom oprezu?",
      "answers": [
        "a) dva",
        "b) četiri",
        "c) šest",
        "d) osam"
      ],
      "correctAnswer": "c"
    },
    {
      "id": 53,
      "question": "9. Arekibo teleskop je široka \"činija\" napravljena od perforiranog aluminijuma smeštena u veliku rupu u zemlji. Koja je njegova širina?",
      "answers": [
        "a) 30,4 m",
        "b) 152 m",
        "c) 228 m",
        "d) 304 m"
      ],
      "correctAnswer": "d"
    },
    {
      "id": 54,
      "question": "10. Radio-teleskop je sposoban da ka centralnoj sabirnoj tački usmeri:",
      "answers": [
        "a) 25 posto radio-talasa koji padnu na njega",
        "b) 50 posto radio-talasa koji padnu na njega",
        "c) 75 posto radio-talasa koji padnu na njega",
        "d) sve radio-talase koji padnu na njega"
      ],
      "correctAnswer": "d"
    },
    {
      "id": 55,
      "question": "11. Radio-talasi koje odašilju zvezde su:",
      "answers": [
        "a) neredovni i slučajni",
        "b) neredovni ali ne i slučajni",
        "c) nisu slučajni, ali su neredovni",
        "d) nisu ni neredovni ni slučajni"
      ],
      "correctAnswer": "a"
    },
    {
      "id": 56,
      "question": "12. Mozak koji stoji iza mozgova SETI potrage je sam po sebi neobičan jer:",
      "answers": [
        "a) ima najveći koeficijent inteligencije na svetu",
        "b) u početku nije bio zainteresovan za astronomiju",
        "c) slep je od rođenja",
        "d) prvobitno je bio doktor medicine"
      ],
      "correctAnswer": "c"
    },
    {
      "id": 57,
      "question": "13. Za koga se kaže daje planeti Zemlji podario vid?",
      "answers": [
        "a) Frenk Drejk",
        "b) Kent Kalers",
        "c) Džil Tarter",
        "d) Galilej"
      ],
      "correctAnswer": "b"
    },
    {
      "id": 58,
      "question": "14. Profesorka Džil Tarter se nada, iako ne veruje, da postoje druge forme inteligencije u svemiru.",
      "answers": [
        "Tačno",
        "Pogrešno"
      ],
      "correctAnswer": "Pogrešno"
    },
    {
      "id": 59,
      "question": "15. Artur C. Klark je rekao: „SETI predstvlja najvišu moguću formu istraživanja i ako prestanemo da istražujemo, prestaćemo da budemo",
      "answers": [
        "a) intelektualna bića",
        "b) bića koja razmišljaju",
        "c) ljudska bića",
        "d) naučnici"
      ],
      "correctAnswer": "c"
    },
    {
      "id": 60,
      "question": "1. Ljudski mozak:",
      "answers": [
        "a) poseduje sve ćelije pri samom začeću",
        "b) poseduje sve ćelije još pre rođenja",
        "c) poseduje sve ćelije mesec dana nakon rođenja",
        "d) poseduje sve ćelije dve godine nakon rođenja"
      ],
      "correctAnswer": "b"
    },
    {
      "id": 61,
      "question": "2. Prvo \"rascvetavanje\" mozga počinje:",
      "answers": [
        "a) pri začeću",
        "b) osam nedelja nakon začeća",
        "c) četiri meseca nakon začeća",
        "d) mesec dana pre rođenja"
      ],
      "correctAnswer": "b"
    },
    {
      "id": 62,
      "question": "3. Drugo \"rascvetavanje\" mozga počinje otprilike:",
      "answers": [
        "a) osam nedelja nakon začeća",
        "b) deset nedelja nakon začeća",
        "c) deset nedelja pre rođenja",
        "d) četiri nedelje pre rođenja"
      ],
      "correctAnswer": "c"
    },
    {
      "id": 63,
      "question": "4. Na rođenju, ljudski mozak teži: (od svoje odrasle težine)",
      "answers": [
        "a) 10%",
        "b) 15%",
        "c) 25%",
        "d) 40%"
      ],
      "correctAnswer": "c"
    },
    {
      "id": 64,
      "question": "5. Sa šest meseci mozak teži: (od svoje odrasle težine)",
      "answers": [
        "a) 25%",
        "b) 40%",
        "c) 50%",
        "d) 75%"
      ],
      "correctAnswer": "c"
    },
    {
      "id": 65,
      "question": "6. Sa dve i po godine mozak teži: (od svoje odrasle težine)",
      "answers": [
        "a) 50%",
        "b) 75%",
        "c) 80%",
        "d) 90%"
      ],
      "correctAnswer": "b"
    },
    {
      "id": 66,
      "question": "7. Sa pet godina ljudski mozak teži: (od svoje odrasle težine)",
      "answers": [
        "a) 85%",
        "b) 90%",
        "c) 95%",
        "d) 100%"
      ],
      "correctAnswer": "b"
    },
    {
      "id": 67,
      "question": "8. Beba je u stanju da pozitivno i na određen način reaguje na zvuke ljudskog glasa na dan svog rođenja.",
      "answers": [
        "Tačno",
        "Pogrešno"
      ],
      "correctAnswer": "Tačno"
    },
    {
      "id": 68,
      "question": "9. Istraživanje Toma Bovera o percepciji novorođenčadi, koje je sproveo na Edinburškom univerzitetu, pokazuje da dete na rođenju:",
      "answers": [
        "a) vidi samo zamagljene prizore",
        "b) odmah se usredsređuje na svoju majku",
        "c) može dobro da čuje zvuke",
        "d) odmah doživljava trodimenzionalni svet"
      ],
      "correctAnswer": "d"
    },
    {
      "id": 69,
      "question": "10. Drugi eksperimenti sprovedeni na Edinburškom univerzitetu pokazali su da postoji i integracija između vida i zvuka, jer novorođenče svoju glavu okreće u pravcu iz koga dolazi zvuk, naročito",
      "answers": [
        "a) majčin glas",
        "b) zvuk visoke frekvencije",
        "c) zvuk niske frekvencije",
        "d) buka"
      ],
      "correctAnswer": "a"
    },
    {
      "id": 70,
      "question": "11. Robert Franc i Mark Džonson otkrili su da novorođenče pokazuje značajan afinitet prema slikama:",
      "answers": [
        "a) svoje majke",
        "b) krugova u boji",
        "c) lica",
        "d) životinja"
      ],
      "correctAnswer": "c"
    },
    {
      "id": 71,
      "question": "12. Deca kojoj se \"tepa\" imaju mnogo veće šanse da steknu osećaj za jezik.",
      "answers": [
        "Tačno",
        "Pogrešno"
      ],
      "correctAnswer": "Pogrešno"
    },
    {
      "id": 72,
      "question": "13. Eksperimenti sa pacovima koje je sproveo Mark Rozenvejg pokazali su da pacovi u bogatom okruženju:",
      "answers": [
        "a) imaju manji mozak",
        "b) fizički više rastu",
        "c) ne pokazuju nikakve promene po pitanju mozga",
        "d) imaju više veza između moždanih ćelija"
      ],
      "correctAnswer": "d"
    },
    {
      "id": 73,
      "question": "14. Neuronske veze se u bebinom mozgu razvijaju:",
      "answers": [
        "a) tokom \"rascvetavanja\" mozga",
        "b) pre rođenja",
        "c) iz naših genetskih skladišta",
        "d) tokom prve dve godine života"
      ],
      "correctAnswer": "a"
    },
    {
      "id": 74,
      "question": "15. Osnovni cilj roditeljstva je:",
      "answers": [
        "a) razvoj genija",
        "b) obezbeđivanje dobrog akademskog obrazovanja",
        "c) sreća i ispunjenost deteta",
        "d) nemešanje u prirodni razvoj deteta"
      ],
      "correctAnswer": "c"
    },
    {
      "id": 75,
      "question": "1. Univerzum je nastao pre otprilike:",
      "answers": [
        "a) 5 miliona godina",
        "b) 75 miliona godina",
        "c) 12 milijardi godina",
        "d) 15 milijardi godina"
      ],
      "correctAnswer": "d"
    },
    {
      "id": 76,
      "question": "2. U Raselovom \"jednogodišnjem filmu o univerzumu\" oblaci gasa počeli su polako da se kondenzuju u skupine galaksija i zvezda u:",
      "answers": [
        "a) januaru - februaru",
        "b) februaru - martu",
        "c) martu-aprilu",
        "d) aprilu-maju"
      ],
      "correctAnswer": "b"
    },
    {
      "id": 77,
      "question": "3. U Raselovom „jednogodišnjem filmu o univerzumu: naše sunce i solarni sistem konačno su se formirali početkom:",
      "answers": [
        "a) jula",
        "b) avgusta",
        "c) septembra",
        "d) oktobra"
      ],
      "correctAnswer": "c"
    },
    {
      "id": 78,
      "question": "4. U Raselovom Jednogodišnjem filmu o univerzumu: jednostavne alge i bakterije pojavili su se:",
      "answers": [
        "a) do početka septembra",
        "b) do početka oktobra",
        "c) do početka novembra",
        "d) do početka decembra"
      ],
      "correctAnswer": "b"
    },
    {
      "id": 79,
      "question": "5. U Raselovom „jednogodišnjem filmu o univerzumu: naši majmunoliki preci su se uspravili na dve noge u:",
      "answers": [
        "a) oktobru",
        "b) novembru",
        "c) poslednje dve nedelje",
        "d) poslednjih sat vremena poslednjeg dana"
      ],
      "correctAnswer": "d"
    },
    {
      "id": 80,
      "question": "6. U Raselovom \"jednogodišnjem filmu o univerzumu\" ljudski jezik počeo je da se razvija:",
      "answers": [
        "a) tokom poslednje dve nedelje",
        "b) tokom poslednje nedelje",
        "c) na početku poslednjeg sata",
        "d) sat i po pre ponoći"
      ],
      "correctAnswer": "d"
    },
    {
      "id": 81,
      "question": "7. U Raselovom \"jednogodišnjem filmu o univerzumu\" Drugi svetski rat se javio:",
      "answers": [
        "a) jedan dan pre ponoći",
        "b) sat pre ponoći",
        "c) manje od jedne desetine sekunde pre ponoći",
        "d) jednu stotinku sekunde pre ponoći"
      ],
      "correctAnswer": "c"
    },
    {
      "id": 82,
      "question": "8. Džon Mek Nulti je procenio da globalna telekomunikaciona mreža 1975. godine nije bila kompleksnija od dela mozga koji je manji od veličine",
      "answers": [
        "a) zrna pasulja",
        "b) zrna graška",
        "c) zrna peska",
        "d) zrna bibera"
      ],
      "correctAnswer": "b"
    },
    {
      "id": 83,
      "question": "9. Piter Rasel veruje da kriza može biti evolutivni katalizator u prelasku na viši nivo uređenosti.",
      "answers": [
        "Tačno",
        "Pogrešno"
      ],
      "correctAnswer": "Tačno"
    },
    {
      "id": 84,
      "question": "10. Proizvod koji proizvodi fotosinteza, a koji je sejao smrt među bićima tog vremena, bio je:",
      "answers": [
        "a) ugljen dioksid",
        "b) kiseonik",
        "c) voda",
        "d) sunčeva svetlost"
      ],
      "correctAnswer": "b"
    },
    {
      "id": 85,
      "question": "11. Sta bi bilo odbačeno kao \"sebično, neprirodno i neodgovorno\" da su tadašnja bića mogla izraziti svoje mišljenje?",
      "answers": [
        "a) evolucija",
        "b) fotosinteza",
        "c) transpiracija",
        "d) resorpcija"
      ],
      "correctAnswer": "b"
    },
    {
      "id": 86,
      "question": "12. U kineskom izrazu vei-či, prvi deo znači:",
      "answers": [
        "a) šansa za promenu",
        "b) dobra sreća",
        "c) pazi se opasnosti",
        "d) srećan život"
      ],
      "correctAnswer": "c"
    },
    {
      "id": 87,
      "question": "13. U kineskom izrazu vei-či, drugi deo reci znači:",
      "answers": [
        "a) šansa za promenu",
        "b) dobra sreća",
        "c) pazi se opasnosti",
        "d) srećan život"
      ],
      "correctAnswer": "a"
    },
    {
      "id": 88,
      "question": "14. Rasel veruje da čovečanstvo može da promeni svoju sudbinu i aktivno oblikuje budućnost.",
      "answers": [
        "Tačno",
        "Pogrešno"
      ],
      "correctAnswer": "Tačno"
    },
    {
      "id": 89,
      "question": "15. Evolutivna budućnost planete Zemlje leži u:",
      "answers": [
        "a) božijem krilu",
        "b) našim rukama",
        "c) našim mozgovima i umovima",
        "d) teoriji haosa"
      ],
      "correctAnswer": "c"
    },
    {
      "id": 90,
      "question": "1. Ko je ljudski mozak opisao kao očaravajući razboj?",
      "answers": [
        "a) Ser Čarls Šerington",
        "b) Piter Rasel",
        "c) Džon Rajder Plat",
        "d) Isak Njutn"
      ],
      "correctAnswer": "a"
    },
    {
      "id": 91,
      "question": "2. Ljudski mozak teži otprilike:",
      "answers": [
        "a) 1,1 kilograma",
        "b) 900 grama",
        "c) 1,5 kilograma",
        "d) 1,3 kilograma"
      ],
      "correctAnswer": "c"
    },
    {
      "id": 92,
      "question": "3. Broj potencijalnih veza jedne moždane ćelije iznosi:",
      "answers": [
        "a) 10^10",
        "b) 10^19",
        "c) 10^28",
        "d) 10^39"
      ],
      "correctAnswer": "c"
    },
    {
      "id": 93,
      "question": "4. Pošto smo znali da postoji stvar kao što je mozak, najveće napore smo usmerfli na:",
      "answers": [
        "a) njegovo poboljšanje",
        "b) nalaženje sistema kojima bismo demonstrirali razlike između različitih mozgova",
        "c) njegovo odbacivanje",
        "d) njegovo uništavanje"
      ],
      "correctAnswer": "b"
    },
    {
      "id": 94,
      "question": "5. Ko je napravio poredenje mozga, transformisanog u vidljivu svetlost, sa fizičkim svetom?",
      "answers": [
        "a) Ser Čarls Šerington",
        "b) Džon Rajder Plat",
        "c) Galilej",
        "d) Ajnštajn"
      ],
      "correctAnswer": "b"
    },
    {
      "id": 95,
      "question": "6. Sunce bi, sa svim svojim velikim erupcijama, bilo jednostavno bledo u odnosu na",
      "answers": [
        "a) ružin grm",
        "b) žute lale",
        "c) bele karanfile",
        "d) visibabe"
      ],
      "correctAnswer": "a"
    },
    {
      "id": 96,
      "question": "7. A \"pas bi bio\": ",
      "answers": [
        "a) ružin žbun",
        "b) svetionik",
        "c) sunce",
        "d) osvetljeni grad"
      ],
      "correctAnswer": "d"
    },
    {
      "id": 97,
      "question": "8. Osnova \"kompleksnog poseda mozga\" je:",
      "answers": [
        "a) nervna ćelija ili neuron",
        "b) dendrit",
        "c)akson",
        "d) korteks"
      ],
      "correctAnswer": "a"
    },
    {
      "id": 98,
      "question": "9. Neuroni se od većine drugih ćelija razlikuju po tome što su:",
      "answers": [
        "a) jednostavniji",
        "b) mnogo komplikovanijeg oblika",
        "c) veći",
        "d) manji"
      ],
      "correctAnswer": "b"
    },
    {
      "id": 99,
      "question": "10. Neuroni mogu doseći:",
      "answers": [
        "a) centimetar",
        "b) inč",
        "c) stopu",
        "d) metar"
      ],
      "correctAnswer": "d"
    },
    {
      "id": 100,
      "question": "11. Proces prenosa elektrohemijskih signala sa jednog na drugi neuron odigrava se:",
      "answers": [
        "a) jednosmerno i sporo",
        "b) u brzim, višestrukim talasima komunikacije",
        "c) brže od brzine svetlosti",
        "d) samo kada razmišljamo"
      ],
      "correctAnswer": "b"
    },
    {
      "id": 101,
      "question": "12. Akson:",
      "answers": [
        "a) je veći od nervne ćelije",
        "b) je osnovni deo sinapse",
        "c) usmerava vitalne nervne impulse",
        "d) je drugo ime za moždanu ćeliju"
      ],
      "correctAnswer": "c"
    },
    {
      "id": 102,
      "question": "13. Fizički i hemijski aspekti procesa u sinapsi su u osnovi jednostavni.",
      "answers": [
        "Tačno",
        "Pogrešno"
      ],
      "correctAnswer": "Pogrešno"
    },
    {
      "id": 103,
      "question": "14. Uobičajeni broj neuronskih \"poruka\" u sekundi je: ",
      "answers": [
        "a) 100",
        "b) 1000",
        "c) 10000",
        "d) 100000"
      ],
      "correctAnswer": "d"
    },
    {
      "id": 104,
      "question": "15. Ko je pisao o četvrtom zakonu o čoveku?",
      "answers": [
        "a) Ajnštajn",
        "b) Frojd",
        "c) Plat",
        "d) Serington"
      ],
      "correctAnswer": "c"
    }
  ]
}